10.5061/dryad.mw6m905tc
10.6084/m9.figshare.22604164.v1
10.17178/amma-catch.cl.pond_gha
10.5281/zenodo.10200549
10.26302/sshade/bandlist_raman_s2o_am-so2-matrix
10.26302/sshade/bandlist_raman_aragonite
10.17178/emaa_hcn_hyperfine_73e9d7ef
10.17178/emaa_hco-plus_rotation_a861ef7a
10.26302/sshade/experiment_rc_20200616_000
10.5061/dryad.m37pvmd0v
10.15778/resif.xt2018
10.5061/dryad.2j5s7
10.15778/resif.6f2021
10.26302/sshade/experiment_bs_20201114_016
10.26302/sshade/experiment_ak_20141103_1
10.26302/sshade/experiment_dt_20180117_008
10.6084/m9.figshare.23575384.v1
10.18709/perscido.2017.10.ds138
10.17178/emaa_(40ar)h-plus_rotation_8c27af9a
10.6084/m9.figshare.23575381
10.5061/dryad.xpnvx0knw
10.48380/dggv-h2gp-1860
10.6084/m9.figshare.23822163.v1
10.26302/sshade/experiment_ak_20141114_1
10.17178/amma-catch.pa.sw_snnr
10.18150/wyyjk6
10.26302/sshade/experiment_lb_20191220_003
10.26302/sshade/experiment_dt_20170222_002
10.26302/sshade/experiment_zy_20180214_000
10.5281/zenodo.10693938
10.5061/dryad.n8v4m
10.6084/m9.figshare.24447574.v1
10.26302/sshade/bandlist_raman_alstonite
10.15778/resif.yi2015
10.17178/emaa_ortho-h2co_rotation_b10653cc
10.6084/m9.figshare.c.6583718.v1
10.26302/sshade/bandlist_abs_hc3n_hc3n-i
10.6084/m9.figshare.20221985.v1
10.26302/sshade/experiment_bs_20201114_017
10.5061/dryad.zw3r2286h
10.6084/m9.figshare.20221976.v1
10.48380/evdd-zw82
10.18709/perscido.2023.07.ds397
10.6084/m9.figshare.20221982
10.6084/m9.figshare.c.5999772
10.26302/sshade/experiment_fs_20201007_002
10.15778/resif.yt2003
10.6084/m9.figshare.16851072
10.5281/zenodo.10577878
10.5061/dryad.qrfj6q5fk
10.26302/sshade/bandlist_raman_otavite
10.6084/m9.figshare.16786735
10.17178/cryobsclim.cdp.2018.metsafran
10.26302/sshade/experiment_ag_20131028_000
10.15778/resif.rd
10.6084/m9.figshare.16851096
10.17178/ohmcv.hss.cla.11-14.1
10.17178/emaa_ortho-nd3_rotation_84ab10a1
10.17178/ohmcv.adv.cla.13-14.1
10.26302/sshade/experiment_op_20201223_001
10.26302/sshade/experiment_op_20201104_001
10.26302/sshade/bandlist_raman_rhodochrosite
10.15778/resif.zh2003
10.6084/m9.figshare.c.6690029
10.26302/sshade/bandlist_raman_eitelite
10.26302/sshade/experiment_gl_20150101_1
10.26302/sshade/experiment_gs_20170713_009
10.26302/sshade/experiment_cl_20181202_01
10.26302/sshade/experiment_gv_20160403_001
10.6084/m9.figshare.25309966.v1
10.60662/pyvs-cj63
10.6084/m9.figshare.12886132
10.26302/sshade/experiment_op_20181105_001
10.6084/m9.figshare.16786753
10.5281/zenodo.10276252
10.6084/m9.figshare.23575390.v1
10.15778/resif.xp2023
10.26302/sshade/experiment_nf_20180503_2100
10.6084/m9.figshare.16851150.v1
10.18709/perscido.2021.11.ds356
10.6084/m9.figshare.20221988
10.6084/m9.figshare.c.6950873.v1
10.5281/zenodo.10444954
10.5061/dryad.b8gtht78h
10.26302/sshade/experiment_gs_20170705_001
10.6084/m9.figshare.24202750.v1
10.17178/emaa_ortho-nhd2_hyperfine_b4d17e14
10.5281/zenodo.10276253
10.15778/resif.ze2018
10.26302/sshade/experiment_lb_20200414_001
10.6084/m9.figshare.c.5814678
10.26302/sshade/experiment_lb_20170725_001
10.17178/emaa_ortho-h2s_rotation_3f29e6c3
10.6084/m9.figshare.12886126.v1
10.17178/emaa_para-nh2d_hyperfine_f7886cfc
10.5061/dryad.dbrv15f06
10.18709/perscido.2022.09.ds375
10.17178/emaa_oh-plus_hyperfine_1d30b9b4
10.6084/m9.figshare.14176175.v1
10.6084/m9.figshare.22735402.v1
10.6084/m9.figshare.23822160
10.60527/07zp-aq60
10.17178/emaa_oh_fine_2e526008
10.6084/m9.figshare.c.7097182
10.6084/m9.figshare.19778277
10.26302/sshade/bandlist_abs_ch4_ch4-i
10.6084/m9.figshare.c.5114735.v1
10.17178/emaa_co_rotation_e6542418
10.6084/m9.figshare.23822157
10.15778/resif.xk2007
10.6084/m9.figshare.12270182.v1
10.26302/sshade/experiment_gs_20170713_002
10.17178/gnss.products.deeptrigger.chile
10.25364/19.2021.5.2
10.6084/m9.figshare.16851075.v1
10.26302/sshade/experiment_cf_20200723_000
10.26302/sshade/experiment_im_20120926_001
10.6084/m9.figshare.25097340.v1
10.5061/dryad.mkkwh70x8
10.26302/sshade/experiment_ak_20141116_1
10.17178/ohmcv.dsd.pvi.12-16.1
10.26302/sshade/bandlist_abs_hematite
10.6084/m9.figshare.20080019.v5
10.6084/m9.figshare.23983484.v1
10.26302/sshade/experiment_jg_20090302_002
10.6084/m9.figshare.24946445
10.26302/sshade/experiment_bs_20170830_001
10.6084/m9.figshare.16851150
10.7275/bp3n-mw53
10.26302/sshade/experiment_soc_20181115_004
10.17178/zaa_soil_temp.gloria
10.5061/dryad.bcc2fqz79
10.6084/m9.figshare.c.6851803
10.5281/zenodo.10534570
10.26302/sshade/bandlist_abs_so2_so2-i
10.18709/perscido.2020.04.ds310
10.6084/m9.figshare.12270152
10.26302/sshade/experiment_lb_20170731_002
10.26302/sshade/experiment_bs_20120803_001
10.5281/zenodo.10728282
10.5061/dryad.brv15dvcj
10.18709/perscido.2021.11.ds357
10.5061/dryad.93n5r
10.6084/m9.figshare.20080019.v3
10.5281/zenodo.10679303
10.26302/sshade/experiment_rb_20130101_002
10.26302/sshade/experiment_gv_20181121_002
10.26302/sshade/experiment_dt_20170706_002
10.18709/perscido.2016.08.ds04
10.15778/resif.zo2008
10.6084/m9.figshare.16851141.v1
10.6084/m9.figshare.24953169.v1
10.60527/dq6j-9e47
10.26302/sshade/bandlist_raman_shortite
10.26302/sshade/experiment_lb_20201001_001
10.6084/m9.figshare.23575369.v1
10.17178/amma-catch.cl.rain_n
10.26302/sshade/bandlist_abs_c4h2_c4h2-i
10.26302/sshade/experiment_zed_20230524_01
10.5281/zenodo.10788911
10.26302/sshade/experiment_cl_20181127_01
10.26302/sshade/bandlist_raman_nyerereite
10.5281/zenodo.10304164
10.6084/m9.figshare.17006979
10.18150/vbwcr1
10.17178/draixbleone_gal_rob_sedsource_0719
10.26302/sshade/experiment_op_20230206_001
10.5281/zenodo.10636066
10.17178/emaa_heh-plus_rotation_2ccc89ee
10.6084/m9.figshare.22625617.v1
10.15778/resif.3a2008
10.6084/m9.figshare.16851093.v1
10.26302/sshade/bandlist_raman_barytocalcite
10.18709/perscido.2020.06.ds299
10.26302/sshade/experiment_jg_20090302_001
10.6084/m9.figshare.16851090
10.26302/sshade/experiment_lb_20170731_003
10.26302/sshade/experiment_bs_20121213_002
10.26302/sshade/experiment_op_20180115_001
10.17178/gnss.products.all
10.17178/amma-catch.mali
10.5061/dryad.ttdz08m16
10.5281/zenodo.10229533
10.17178/emaa_so_fine_e3d652e7
10.26302/sshade/bandlist_raman_c2n2-c2n2-i
10.6084/m9.figshare.23575375
10.17178/amma-catch.ce.raind_nc
10.18709/perscido.2023.04.ds390
10.5281/zenodo.10049814
10.60527/gx2t-a525
10.5061/dryad.j6q573n7x
10.5281/zenodo.10854247
10.2312/yes19.15
10.5281/zenodo.10607085
10.6084/m9.figshare.23983487.v1
10.5061/dryad.c670tq2
10.26302/sshade/experiment_ap_20210622_0001
10.26302/sshade/experiment_zy_20180209_000
10.6084/m9.figshare.16786744
10.5281/zenodo.10652456
10.26302/sshade/experiment_zy_20180207_000
10.17178/emaa_para-h2co_rotation_0b3b04a6
10.6084/m9.figshare.16786759.v1
10.26302/sshade/experiment_jc_20220615_001
10.18709/perscido.2022.01.ds364
10.26302/sshade/experiment_dt_20170706_001
10.26302/sshade/experiment_cp_20180418_001
10.15778/resif.yw2017
10.26302/sshade/experiment_zy_20180213_000
10.26302/sshade/bandlist_raman_ch4_ch4-i
10.26302/sshade/experiment_dt_20170222_001
10.6084/m9.figshare.22625614
10.26302/sshade/experiment_sh_20050103_001
10.5061/dryad.qrfj6q5h6
10.26302/sshade/experiment_hm_20170912_101
10.15778/resif.yp2014
10.6084/m9.figshare.21550639.v1
10.6084/m9.figshare.22599664
10.5061/dryad.sq67g
10.6084/m9.figshare.22807638.v1
10.26302/sshade/experiment_cl_20181202_05
10.17178/emaa_c(18o)_rotation_1175b5dd
10.15778/resif.zk2017
10.26302/sshade/experiment_soc_20181115_001
10.6084/m9.figshare.22735503.v1
10.6084/m9.figshare.22655339.v1
10.5061/dryad.6c886
10.17178/emaa_hc3n_rotation_4ac6b479
10.6084/m9.figshare.c.5257892.v1
10.6084/m9.figshare.c.5129698.v1
10.34616/wse.2019.13.61.80
10.6084/m9.figshare.16851102.v1
10.5061/dryad.qv9s4mwf3
10.6084/m9.figshare.c.6642960.v1
10.26302/sshade/experiment_gs_20170713_005
10.25502/synk-yv41/d
10.6084/m9.figshare.16851063
10.5061/dryad.3j9kd51j5
10.5281/zenodo.10055461
10.26302/sshade/experiment_gm_20220122
10.26302/sshade/experiment_bs_20200217_100
10.6084/m9.figshare.13632735
10.17178/amma-catch.ce.run_nct
10.18709/perscido.2021.09.ds353
10.7280/d1595v
10.6084/m9.figshare.22609322.v1
10.6084/m9.figshare.12270176.v1
10.5281/zenodo.10165853
10.60527/ej9m-bc86
10.6084/m9.figshare.16851102
10.5061/dryad.hmgqnk9f6
10.5281/zenodo.10440363
10.17178/cryobsclim.clb.bso
10.26302/sshade/experiment_rc_20200508_000
10.6084/m9.figshare.24091567.v1
10.18709/perscido.2016.10.ds32
10.6084/m9.figshare.16851135.v1
10.26302/sshade/experiment_lb_20170718_001
10.26302/sshade/experiment_bs_20210913_001
10.17178/emaa_ortho-d2s_rotation_a6fd14e0
10.26302/sshade/experiment_rc_20200511_000
10.5061/dryad.pp72j
10.6084/m9.figshare.23575387
10.26302/sshade/experiment_dt_20170706_004
10.17178/amma-catch.cl.run_o
10.6084/m9.figshare.23983487
10.18709/perscido.2023.04.ds391
10.15778/resif.x72010
10.5061/dryad.fbg79cnx2
10.6084/m9.figshare.16851159.v1
10.26302/sshade/experiment_hm_20170913_020
10.26302/sshade/experiment_op_20230220_001
10.6084/m9.figshare.c.5999772.v1
10.48649/asmn.632
10.6084/m9.figshare.20235676
10.6084/m9.figshare.c.6642960
10.26302/sshade/experiment_zed_20230127_01
10.5281/zenodo.10728283
10.5061/dryad.n5tb2rbx9
10.60527/t65m-5h40
10.5061/dryad.cjsxksn63
10.6084/m9.figshare.25284801
10.26302/sshade/experiment_eb_20180618_001
10.6084/m9.figshare.12270167.v1
10.15778/resif.cl
10.17178/emaa_ortho-(13c)c2h2_rotation_a4239764
10.5061/dryad.c2fqz616h
10.6084/m9.figshare.12270176
10.26302/sshade/experiment_sb_20210430_001
10.26302/sshade/experiment_cc_20180428_002
10.6084/m9.figshare.21341628.v1
10.6084/m9.figshare.19084110.v1
10.26302/sshade/experiment_jg_20090125_001
10.5061/dryad.wm37pvmkw
10.17178/emaa_hcn_rotation_a4d98833
10.5281/zenodo.10013098
10.5061/dryad.cvdncjt2p
10.26302/sshade/experiment_pc_20180420_001
10.6084/m9.figshare.22625608
10.6084/m9.figshare.c.7007130.v1
10.17178/emaa_ortho-h2co_hyperfine_21889b23
10.17178/emaa_ortho-nh2d_hyperfine_0ead32a0
10.6084/m9.figshare.16851096.v1
10.5061/dryad.zkh189382
10.26302/sshade/experiment_cc_20180427_001
10.6084/m9.figshare.c.6235037.v1
10.5061/dryad.4j0zpc8h2
10.26302/sshade/experiment_op_20191119_001
10.15778/resif.xj2009
10.26302/sshade/experiment_sr_20200204_03
10.26302/sshade/experiment_st_20161124_001
10.26302/sshade/experiment_hm_20171017_001
10.13140/rg.2.2.17542.47682
10.6084/m9.figshare.c.7089974
10.5281/zenodo.10214411
10.26302/sshade/bandlist_raman_nico3
10.2312/yes19
10.17178/emaa_ortho-nh3_hyperfine_22b1dfb7
10.15778/resif.xq2020
10.26302/sshade/experiment_dm_20121002_004
10.15778/resif.8f2016
10.15146/zf0j-5m50
10.6084/m9.figshare.24447574
10.26302/sshade/experiment_bs_20121218_001
10.5061/dryad.18tg7
10.15778/resif.yi2008
10.6084/m9.figshare.c.6235037
10.6084/m9.figshare.21430977.v1
10.26302/sshade/bandlist_raman_alpha_k2caco3-2
10.5061/dryad.0rxwdbrv7
10.17178/cryobsclim.cdp.2018
10.17178/amma-catch.ae.h2oflux_ncw
10.6084/m9.figshare.24091567
10.5061/dryad.490p9
10.26302/sshade/experiment_kd_20170822
10.26302/sshade/experiment_ak_20141122_1
10.57757/iugg23-4610
10.26302/sshade/experiment_lb_20180503_001
10.5061/dryad.1qt12
10.60527/ds89-6j10
10.17178/amma-catch.ce.raind_nct
10.26302/sshade/experiment_bs_20160831_000
10.26302/sshade/experiment_jf_20201104_001
10.15778/resif.xp2014
10.26302/sshade/experiment_cl_20181202_04
10.5281/zenodo.10214410
10.5061/dryad.ttdz08ktn
10.26302/sshade/experiment_bs_20201114_009
10.17178/ohmcv.dsd.mre.12-14.1
10.6084/m9.figshare.23822154
10.26302/sshade/bandlist_abs_ch3oh_am-ch3oh
10.5281/zenodo.10013099
10.17178/amma-catch.al.met_nc
10.6084/m9.figshare.c.6950873
10.26302/sshade/experiment_lb_20170721_001
10.5281/zenodo.10014634
10.6084/m9.figshare.20221982.v1
10.26302/sshade/experiment_jg_20091029_002
10.25384/sage.c.6772590
10.6084/m9.figshare.24091564.v1
10.6084/m9.figshare.12991753
10.17178/emaa_ortho-(15n)h2d_rotation_018a251d
10.26302/sshade/bandlist_abs_c2h2_am-c2h2
10.6084/m9.figshare.13646872.v1
10.17178/amma-catch.ce.sw_gha
10.6084/m9.figshare.25248759.v1
10.26302/sshade/experiment_gs_20170713_008
10.60527/hytc-5677
10.17178/emaa_para-nh3_rotation_44e467bd
10.26302/sshade/experiment_bs_20200814_100
10.26302/sshade/experiment_lb_20191211_002
10.6084/m9.figshare.22625635
10.26302/sshade/bandlist_raman_fe-magnesite
10.6084/m9.figshare.16851153.v1
10.26302/sshade/experiment_zy_20180212_000
10.26302/sshade/experiment_soc_20181115_002
10.6084/m9.figshare.14450781
10.6084/m9.figshare.c.6596467
10.6084/m9.figshare.16851144
10.5061/dryad.jq2bvq878
10.6084/m9.figshare.21285665
10.6084/m9.figshare.24165071.v1
10.26302/sshade/experiment_dm_20141115_002
10.6084/m9.figshare.c.6424523.v1
10.26302/sshade/bandlist_raman_magnesite
10.5061/dryad.rb0qk13
10.6084/m9.figshare.12991753.v1
10.6084/m9.figshare.16786738
10.26302/sshade/experiment_sp_20210420_1000
10.26302/sshade/experiment_cl_20181201_07
10.7280/d1b114
10.17178/emaa_meta-nd3_hyperfine_b3e9eff8
10.15778/resif.z72018
10.17178/emaa_h2_rovibration_5e046bb5
10.48380/6fh7-7m80
10.5061/dryad.dv41ns1wf
10.26302/sshade/bandlist_raman_fe-dolomite
10.5281/zenodo.10854246
10.14470/ks178126
10.6084/m9.figshare.23575378
10.26302/sshade/experiment_op_20180115_002
10.6084/m9.figshare.c.6627379.v1
10.5061/dryad.t33v4k14
10.23708/000521
10.26302/sshade/experiment_lb_20191211_004
10.5061/dryad.mgqnk98wm
10.17178/emaa_ortho-nd3_hyperfine_56cd60b2
10.5281/zenodo.10053092
10.6084/m9.figshare.16786750.v1
10.26302/sshade/experiment_bms_20150101_004
10.5281/zenodo.10575611
10.6084/m9.figshare.12452300
10.15778/resif.zs2007
10.6084/m9.figshare.c.4974425
10.26302/sshade/experiment_lb_20201103_001
10.17178/amma-catch.senegal
10.15778/resif.zv2018
10.17178/amma-catch.al.met_od
10.5281/zenodo.10229534
10.6084/m9.figshare.16786777.v1
10.5061/dryad.rxwdbrvbg
10.6084/m9.figshare.21432228
10.26302/sshade/experiment_op_20230203_001
10.26302/sshade/experiment_gs_20170713_001
10.6084/m9.figshare.16851144.v1
10.18709/perscido.2022.06.ds369
10.60527/s3pc-ya20
10.17178/emaa_ortho-h2(34s)_rotation_2f37d6f0
10.15778/resif.mt
10.26302/sshade/experiment_rc_20200616_001
10.17178/draixbleone_gal_rob_ion_1719
10.26302/sshade/experiment_ak_20141106_1
10.6084/m9.figshare.16851078.v1
10.17178/ohmcv.rts.auz.10-14.1
10.48380/7gdm-j630
10.17178/amma-catch.cl.rain_g
10.17178/cryobsclim.cdp.2018.solarmask
10.17178/draixbleone_gal.all
10.26302/sshade/experiment_vc_20050725_001
10.26302/sshade/experiment_jg_20091029_004
10.5281/zenodo.10788912
10.5281/zenodo.10807437
10.6084/m9.figshare.24196813
10.6084/m9.figshare.23575387.v1
10.6084/m9.figshare.21368764.v1
10.15778/resif.1a2009
10.5061/dryad.27qf3
10.6084/m9.figshare.12926231
10.6084/m9.figshare.12421358.v1
10.26302/sshade/experiment_cc_20180725_01
10.6084/m9.figshare.22625629
10.48649/asdc.1201
10.26302/sshade/experiment_bs_20201114_011
10.17178/emaa_(18o)h-plus_hyperfine_1c669710
10.6084/m9.figshare.25200581
10.6084/m9.figshare.16851123
10.6084/m9.figshare.20221979
10.6084/m9.figshare.24202747
10.6084/m9.figshare.22617740.v1
10.26302/sshade/experiment_mm_20161207_004
10.6084/m9.figshare.23983484
10.17178/emaa_(13c)ch_hyperfine_b78c5723
10.6084/m9.figshare.c.6590285.v1
10.17178/ohmcv.dsd.sef.12-16.1
10.6084/m9.figshare.21285662.v1
10.26302/sshade/experiment_bs_20201114_010
10.26302/sshade/experiment_lb_20170731_005
10.26302/sshade/experiment_kd_20170823
10.5281/zenodo.10679304
10.6084/m9.figshare.c.6593063.v1
10.6084/m9.figshare.13525199
10.15778/resif.zh2016
10.5061/dryad.4rr39
10.26302/sshade/bandlist_abs_co2_co2-i
10.18709/perscido.2017.10.ds117
10.6084/m9.figshare.c.5005922.v1
10.15778/resif.xg2020
10.6084/m9.figshare.20221970
10.15778/resif.y22014
10.26302/sshade/experiment_cl_20181123_001
10.6084/m9.figshare.24030816
10.60662/7nek-jq08
10.17178/snouf.2022
10.26302/sshade/experiment_jg_20090301_001
10.5061/dryad.3bk3j9kph
10.6084/m9.figshare.12421352.v1
10.26302/sshade/experiment_cc_20180724_01
10.17178/emaa_ortho-nh2_hyperfine_6c2e5783
10.5061/dryad.cz8w9gj06
10.6084/m9.figshare.c.5814678.v1
10.5281/zenodo.10423907
10.6084/m9.figshare.12421367.v1
10.26302/sshade/experiment_bs_20130206_001
10.15778/resif.xy2007
10.60662/x25q-yv27
10.6084/m9.figshare.22735503
10.6084/m9.figshare.23816832.v1
10.6084/m9.figshare.16786777
10.26302/sshade/experiment_op_20230207_001
10.15778/resif.1n2015
10.60527/67kz-8s19
10.6084/m9.figshare.16851126.v1
10.5281/zenodo.10341149
10.6084/m9.figshare.c.7105606.v1
10.6084/m9.figshare.13323652
10.17178/ohmcv.dsd.vb2.11-14.1
10.6084/m9.figshare.c.6842762.v1
10.6084/m9.figshare.23575360.v1
10.17178/ohmcv.dsd.sou.12-16.1
10.26302/sshade/bandlist_raman_natrite
10.26302/sshade/experiment_tg_20180503_001
10.5061/dryad.060d2
10.15778/resif.yp2017
10.26302/sshade/experiment_op_20180313_002
10.17178/emaa_hc3(15n)_rotation_4dcd1291
10.6084/m9.figshare.22613069.v1
10.26302/sshade/experiment_rb_20130101_003
10.5281/zenodo.10014633
10.6084/m9.figshare.21550639
10.6084/m9.figshare.c.6771537
10.5281/zenodo.10575610
10.17178/emaa_oh_hyperfine_83ce026b
10.17178/emaa_hc3n_hyperfine_f86a675e
10.6084/m9.figshare.c.6606032
10.26302/sshade/experiment_gs_20170712_002
10.13140/rg.2.2.34930.04805
10.6084/m9.figshare.16851105
10.26302/sshade/experiment_ak_20141113_1
10.6084/m9.figshare.c.5673672.v1
10.6084/m9.figshare.16786768.v1
10.17178/emaa_c(18o)_rotation_a61158dd
10.48380/dggv-p1k4-1p40
10.26302/sshade/experiment_bs_20201201_001
10.18709/perscido.2021.12.ds363
10.26302/sshade/experiment_op_20201203_001
10.17178/gnss.products.epos
10.6084/m9.figshare.23575363
10.26302/sshade/experiment_lb_20180719_001
10.5061/dryad.wh70rxwnf
10.5281/zenodo.10400476
10.26302/sshade/experiment_lb_20210201_001
10.6084/m9.figshare.c.6592858
10.6084/m9.figshare.21341628
10.26302/sshade/experiment_jr_20150621_001
10.17178/emaa_(13c)n_hyperfine_18ebf4d6
10.26302/sshade/bandlist_abs_ch3cn_alpha-ch3cn
10.6084/m9.figshare.12291689
10.17178/zaa_soil_temp.all
10.15778/resif.1d2019
10.6084/m9.figshare.16786771
10.6084/m9.figshare.16851069
10.5281/zenodo.10341148
10.5061/dryad.qv9s4mwgb
10.5061/dryad.pc866t1k5
10.6084/m9.figshare.14450781.v1
10.26302/sshade/experiment_dt_20180710_001
10.5061/dryad.3ffbg79pv
10.26302/sshade/bandlist_raman_mg-gaspeite
10.5061/dryad.c866t1g49
10.26302/sshade/experiment_bs_20130103_003
10.15778/resif.7c2009
10.6084/m9.figshare.c.4968908
10.6084/m9.figshare.c.6804540
10.26302/sshade/experiment_sb_20200511_001
10.18709/perscido.2021.04.ds331
10.6084/m9.figshare.25200581.v1
10.5061/dryad.4n5929c
10.6084/m9.figshare.21430971
10.5061/dryad.s3015
10.15778/resif.y42004
10.48380/dggv-jsn0-1k58
10.26302/sshade/experiment_lb_20170719_001
10.5281/zenodo.10578348
10.26302/sshade/experiment_bs_20130215_001
10.17178/erosion_model.2020
10.26302/sshade/experiment_sb_20200128_001
10.5061/dryad.zw3r2285q
10.6084/m9.figshare.24202753
10.6084/m9.figshare.12991759
10.18709/perscido.2017.03.ds31
10.26302/sshade/experiment_ct_20090317_001
10.17178/emaa_(36ar)h-plus_rotation_173ef621
10.26302/sshade/experiment_jg_20090302_003
10.26302/sshade/experiment_soc_20181115_003
10.6084/m9.figshare.16851066.v1
10.5281/zenodo.10511345
10.17178/gnss.products.southamerica_gipsyx.daily
10.6084/m9.figshare.16851066
10.6084/m9.figshare.20221967.v1
10.6084/m9.figshare.c.6627379
10.6084/m9.figshare.16851141
10.6084/m9.figshare.19778277.v1
10.18709/perscido.2020.03.ds294
10.6084/m9.figshare.c.6257914
10.26302/sshade/bandlist_abs_n2_alpha-n2
10.5061/dryad.1sf007b
10.18709/perscido.2023.02.ds382
10.6084/m9.figshare.22613069
10.17178/zaa_soil_temp.orchamp
10.17178/gnss.products.epos.2019
10.26302/sshade/experiment_bms_20150101_003
10.17178/amma-catch.niger
10.18709/mp70-ey27
10.17178/emaa_ortho-nh2d_rotation_4f72e13c
10.6084/m9.figshare.16851072.v1
10.60527/qsw1-vr24
10.6084/m9.figshare.22735399
10.17178/emaa_e-ch3oh_rotation_b00fa82a
10.26302/sshade/experiment_sh_20050101_001
10.26302/sshade/experiment_gs_20170713_003
10.60527/ndaf-te24
10.6084/m9.figshare.c.5657338
10.6084/m9.figshare.c.7097182.v1
10.17178/ohmcv.ero.pra.10-13.1
10.6084/m9.figshare.24946445.v1
10.60527/3dvh-8m86
10.26302/sshade/experiment_lb_20200108_001
10.60527/kq79-kq26
10.6084/m9.figshare.c.5453885.v1
10.6084/m9.figshare.c.5279142.v1
10.17178/gnss.products.japan_gipsyx.daily
10.17178/emaa_a-(13c)h3oh_rotation_6b79e149
10.26302/sshade/experiment_op_20180717_002
10.5281/zenodo.10048444
10.17178/emaa_ortho-nhd2_rotation_a29be09d
10.5061/dryad.s4q6s
10.26302/sshade/experiment_vc_20050728_001
10.15778/resif.zo2018
10.6084/m9.figshare.c.5282401.v1
10.25647/liepp.wp.38bis
10.26302/sshade/experiment_rc_20200618_000
10.6084/m9.figshare.23575363.v1
10.6084/m9.figshare.c.5005922
10.26302/sshade/experiment_ik_20181029_001
10.17178/ohmcv.lim.cla.12-14.1
10.34745/numerev_1937
10.17178/gnss.products.deeptrigger.peru
10.26302/sshade/experiment_gm_20220331
10.5285/634ee206-258f-4b47-9237-efff4ef9eedd
10.17178/amma-catch.all
10.6084/m9.figshare.23551874
10.5061/dryad.2v1m1fj
10.26302/sshade/experiment_cl_20181201_02
10.25384/sage.21845348.v1
10.26302/sshade/experiment_ik_20180418_001
10.5061/dryad.1s7v5
10.18709/perscido.2018.10.ds133
10.5061/dryad.hqbzkh1jx
10.26302/sshade/experiment_gs_20170713_010
10.6084/m9.figshare.22649276.v1
10.6084/m9.figshare.21430971.v1
10.6084/m9.figshare.22625632.v1
10.26302/sshade/experiment_kd_20220525_002
10.26302/sshade/experiment_pa_20180702_001
10.5281/zenodo.10715584
10.18709/perscido.2022.02.ds365
10.26302/sshade/experiment_ak_20141115_1
10.17178/emaa_para-c3h2_rotation_bcdd4e50
10.26302/sshade/experiment_rb_20160422_001
10.6084/m9.figshare.20222461.v1
10.5061/dryad.7h44j100f
10.17178/emaa_para-d2s_rotation_1e071ded
10.60662/ydh4-8904
10.26302/sshade/experiment_rb_20130101_001
10.26302/sshade/experiment_ak_20141108_1
10.17178/draixbleone_gal_rob_ssc_0719
10.17178/amma-catch.cl.rain_nig
10.26302/sshade/experiment_nc_20181214_001
10.17178/cryobsclim.cdp.2018.metinsitu
10.26302/sshade/experiment_dt_20180117_005
10.15778/resif.zl2019
10.5061/dryad.c1jr3
10.6084/m9.figshare.16786750
10.5061/dryad.n230404
10.26302/sshade/experiment_zed_20220831_001
10.26302/sshade/experiment_jg_20090302_004
10.26302/sshade/experiment_bs_20121217_001
10.26302/sshade/experiment_ml_20171221_001
10.17178/emaa_para-nhd2_hyperfine_3bc12b4c
10.6084/m9.figshare.23575366
10.17178/cryobsclim.cdp.2018.snowprofile
10.26302/sshade/experiment_ak_20141208_1
10.17178/emaa_ortho-h2c(18o)_rotation_7963f75b
10.6084/m9.figshare.13323658.v1
10.5061/dryad.4f4qrfjjc
10.6084/m9.figshare.12291716
10.6084/m9.figshare.14450784
10.6084/m9.figshare.c.6592129.v1
10.34929/xttd-nb60
10.15778/resif.zf2003
10.17178/emaa_hds_rotation_d3b568cc
10.26302/sshade/experiment_gm_20190905_001
10.6084/m9.figshare.c.7105606
10.26302/sshade/experiment_kd_20220331
10.26302/sshade/experiment_ak_20141110_1
10.6084/m9.figshare.16851084.v1
10.17178/emaa_c(13c)h_hyperfine_2bb79b69
10.5281/zenodo.10551645
10.6084/m9.figshare.24483508.v1
10.17178/emaa_n2h-plus_rotation_5874615e
10.6084/m9.figshare.24940485
10.26302/sshade/experiment_bs_20200422_100
10.18709/perscido.2021.09.ds334
10.18150/damcb2
10.25384/sage.c.6377642.v1
10.6084/m9.figshare.24030816.v1
10.26302/sshade/experiment_ak_20141109_1
10.5061/dryad.jwstqjqbr
10.6084/m9.figshare.22075664.v1
10.6084/m9.figshare.22617740
10.6084/m9.figshare.c.7081935
10.17178/draixbleone_gal_rob_sedpsd_0809
10.15778/resif.3t2019
10.6084/m9.figshare.25248759
10.26302/sshade/experiment_bs_20130120_002
10.15778/resif.8c2019
10.17178/amma-catch.ce.gwat_odc
10.25384/sage.c.6772590.v1
10.17178/emaa_para-h2(13c)o_rotation_903f6446
10.5061/dryad.m905qftwt
10.5281/zenodo.10050503
10.18709/perscido.2020.01.ds280
10.26302/sshade/experiment_ag_20131016_000
10.6084/m9.figshare.23575366.v1
10.18709/perscido.2024.02.ds406
10.17178/emaa_ortho-nh3_rotation_7565c572
10.26302/sshade/experiment_lm_20220302_olve
10.5061/dryad.9w0vt4bd1
10.6084/m9.figshare.c.6272373.v1
10.6084/m9.figshare.22613066
10.6084/m9.figshare.19084110
10.17178/ohmcv.dsd.vb1.12-16.1
10.25519/6w2g-dr94
10.6084/m9.figshare.c.6821914.v1
10.18709/perscido.2017.03.ds55
10.6084/m9.figshare.17006979.v1
10.5281/zenodo.10262984
10.17178/emaa_oh_fine_73f2c321
10.26302/sshade/experiment_bs_20181101_001
10.26302/sshade/experiment_jg_20090226_001
10.6084/m9.figshare.22604164
10.6084/m9.figshare.12452300.v1
10.5281/zenodo.10304165
10.17178/cryobsclim.cdp.2018.metsnowdaily
10.26302/sshade/experiment_cl_20181202_02
10.26302/sshade/experiment_dl_20181107_002
10.26302/sshade/experiment_lb_20220119_001
10.5281/zenodo.10636065
10.15778/resif.zo2014
10.5281/zenodo.10265626
10.6084/m9.figshare.12270167
10.17178/osug-collections.all
10.26302/sshade/experiment_sb_20210312_001
10.6084/m9.figshare.21368764
10.6084/m9.figshare.22620040.v1
10.17178/emaa_o_fine_5038a7a8
10.26302/sshade/experiment_lb_20200201_001
10.26302/sshade/experiment_yd_20160401_001
10.26302/sshade/experiment_lb_20170726_001
10.18709/perscido.2019.07.ds249
10.26302/sshade/experiment_lb_20180326_001
10.15778/resif.fr
10.15778/resif.xo2021
10.5061/dryad.m1t32
10.60527/fpa9-1718
10.17178/emaa_(13c)o_rotation_922483ff
10.15778/resif.xw2007
10.17178/amma-catch.cl.rain_od
10.6084/m9.figshare.22620031
10.5281/zenodo.10807438
10.26302/sshade/experiment_lb_20170728_001
10.6084/m9.figshare.22609319.v1
10.6084/m9.figshare.16786768
10.6084/m9.figshare.16786762.v1
10.15778/resif.ra
10.5061/dryad.k31d4
10.17178/ohmcv.dsd.vb3.12-14.1
10.60527/1egh-1a67
10.26302/sshade/experiment_dt_20170704_001
10.26302/sshade/experiment_ak_20141101_1
10.26302/sshade/experiment_op_20180115_003
10.5061/dryad.jdfn2z378
10.26302/sshade/experiment_jg_20090226_002
10.48380/gq45-dv88
10.60662/re4y-6g57
10.26302/sshade/experiment_dt_20180117_009
10.6084/m9.figshare.16851075
10.5061/dryad.n13hn
10.15778/resif.6b2021
10.17178/draixbleone_gal_rob_cond_1719
10.5061/dryad.wdbrv15wb
10.17178/amma-catch.ce.rain_nc_9004
10.26302/sshade/experiment_bs_20120924_001
10.6084/m9.figshare.c.6579520
10.6084/m9.figshare.22610681.v1
10.5281/zenodo.10000776
10.25349/d9vw3d
10.26302/sshade/experiment_dt_20170215_000
10.6084/m9.figshare.16851114.v1
10.26302/sshade/experiment_dt_20161207_001
10.26302/sshade/experiment_zy_20180110_002
10.6084/m9.figshare.c.6900580
10.5281/zenodo.10634904
10.6084/m9.figshare.16786738.v1
10.17178/emaa_para-nh3_rotation-hot_9da5b297
10.6084/m9.figshare.22599664.v1
10.17178/amma-catch.al.met_g
10.6084/m9.figshare.16851117.v1
10.26302/sshade/experiment_bs_20201121_013
10.15778/resif.xw2019
10.26302/sshade/experiment_op_20230206_002
10.26302/sshade/experiment_bs_20160912_001
10.26302/sshade/bandlist_abs_calcite
10.6084/m9.figshare.c.5105152.v1
10.17178/draixbleone_gal_rob_temp_1519
10.17178/amma-catch.ce.veg_gh
10.26302/sshade/experiment_ml_20171221_002
10.6084/m9.figshare.c.6272373
10.48380/zc5e-4m51
10.6084/m9.figshare.22620037
10.17178/emaa_h(13c)n_hyperfine_9c162ef8
10.5281/zenodo.10587576
10.5061/dryad.8gtht76tq
10.6084/m9.figshare.c.7068560.v1
10.6084/m9.figshare.21432228.v1
10.6084/m9.figshare.14450793
10.6084/m9.figshare.c.6586643
10.17178/draixbleone_gal_ain_met_1920
10.26302/sshade/experiment_bs_20200812_100
10.5281/zenodo.10640565
10.17178/amma-catch.cl.gwatwell_o
10.5281/zenodo.7603974
10.17178/ohmcv.dsd.vb1.12-14.1
10.6084/m9.figshare.13323658
10.5281/zenodo.10782398
10.6084/m9.figshare.c.6712342
10.60527/zxn9-6b90
10.6084/m9.figshare.22625629.v1
10.26302/sshade/experiment_bs_20191231_001
10.17178/emaa_hnc_rotation_20269bc3
10.26302/sshade/bandlist_raman_vaterite
10.26302/sshade/experiment_bms_20150101_002
10.6084/m9.figshare.12291698.v1
10.6084/m9.figshare.c.5657338.v1
10.26302/sshade/experiment_lb_20200226_001
10.26302/sshade/experiment_rc_20200109_000
10.26302/sshade/experiment_dt_20170215_001
10.17178/emaa_hnc3_rotation_96dd18c8
10.17178/emaa_dnc_rotation_65a4bdbe
10.6084/m9.figshare.23822151.v1
10.26302/sshade/experiment_dt_20180710_002
10.6084/m9.figshare.15033205.v1
10.60662/n581-qq67
10.5061/dryad.4kn05
10.6084/m9.figshare.c.6250158
10.18709/perscido.2022.05.ds367
10.25384/sage.22573164
10.26302/sshade/experiment_gs_20161209_001
10.6084/m9.figshare.22620040
10.6084/m9.figshare.13632732
10.6084/m9.figshare.c.7068560
10.6084/m9.figshare.c.6272697
10.6084/m9.figshare.21430974.v1
10.26302/sshade/experiment_op_20171130_001
10.6084/m9.figshare.22620034.v1
10.6084/m9.figshare.21430977
10.5061/dryad.2547d7wr9
10.26302/sshade/experiment_lb_20200902_001
10.15778/resif.zi2001
10.26302/sshade/bandlist_abs_so_ar-matrix
10.26302/sshade/experiment_ab_20220628_001
10.57757/iugg23-4587
10.6084/m9.figshare.c.5453885
10.15778/resif.zu2015
10.17178/emaa_ortho-h2co_hyperfine_4628f093
10.15778/resif.yo1998
10.7280/d1r085
10.6084/m9.figshare.22027566.v1
10.6084/m9.figshare.c.6586643.v1
10.26302/sshade/experiment_soc_20170316_001
10.26302/sshade/experiment_ak_20141123_1
10.6084/m9.figshare.25309966
10.6084/m9.figshare.22625626.v1
10.6084/m9.figshare.22625626
10.5061/dryad.7wm37pvx5
10.5281/zenodo.10577879
10.18709/perscido.2023.02.ds384
10.18709/perscido.2017.11.ds100
10.6084/m9.figshare.c.6900580.v1
10.6084/m9.figshare.c.6627480.v1
10.17178/emaa_para-(15n)h2d_rotation_e7374da5
10.26302/sshade/experiment_ak_20141104_1
10.6084/m9.figshare.16851069.v1
10.17178/cryobsclim.clb.dome
10.26302/sshade/experiment_cl_20181201_05
10.18709/perscido.2023.06.ds396
10.17178/emaa_para-nh3_hyperfine_1be97812
10.5061/dryad.q1d7f
10.26302/sshade/experiment_sb_20210218_001
10.6084/m9.figshare.22625623
10.5285/3ea504d8-41c2-40dc-86dc-284c341badaa
10.5061/dryad.9kd51c5q1
10.26302/sshade/bandlist_abs_c2h2_meta-c2h2
10.26302/sshade/experiment_ag_20130923_000
10.6084/m9.figshare.23575369
10.26302/sshade/experiment_lb_20191211_001
10.26302/sshade/experiment_zed_20220901
10.6084/m9.figshare.22620034
10.15778/resif.yb2010
10.26302/sshade/experiment_zed_20230626_01
10.5061/dryad.tdz08kq05
10.5281/zenodo.10419096
10.26302/sshade/experiment_lb_20191216_001
10.26302/sshade/experiment_cf_20200813_000
10.6084/m9.figshare.16851123.v1
10.6084/m9.figshare.22807638
10.5061/dryad.pf420
10.7914/2abe-6t27
10.26302/sshade/experiment_op_20181105_002
10.5061/dryad.4mj8gg0
10.6084/m9.figshare.22625611.v1
10.6084/m9.figshare.24940485.v1
10.26302/sshade/experiment_zed_20230705_01
10.6084/m9.figshare.21430974
10.5281/zenodo.10205579
10.6084/m9.figshare.24647123.v1
10.60527/aa32-v231
10.17178/amma-catch.ce.sw_g
10.6084/m9.figshare.12886129.v1
10.26302/sshade/experiment_op_20200908_001
10.26302/sshade/experiment_cb_20190408_001
10.6084/m9.figshare.22877643.v1
10.6084/m9.figshare.25284801.v1
10.15778/resif.y92009
10.5061/dryad.b2rbnzsp7
10.6084/m9.figshare.c.6853693.v1
10.6084/m9.figshare.c.6579520.v1
10.17178/amma-catch.pa.h2oflux_snns
10.25384/sage.22573164.v1
10.26302/sshade/experiment_jd_20171122_001
10.6084/m9.figshare.22075664
10.26302/sshade/experiment_cc_20190501_02
10.5281/zenodo.10005463
10.18709/perscido.2017.10.ds129
10.26302/sshade/experiment_ak_20141125_1
10.5061/dryad.m0cfxpp06
10.6084/m9.figshare.13323649.v1
10.17178/emaa_hd(34s)_rotation_8a51ba80
10.5061/dryad.6s5pn
10.6084/m9.figshare.12291689.v1
10.5281/zenodo.10165854
10.5061/dryad.8290n
10.26302/sshade/bandlist_raman_co2_co2-i
10.17178/emaa_ortho-h2o_rotation_0d2ed16f
10.26302/sshade/experiment_gm_20190902_001
10.6084/m9.figshare.13525202
10.5061/dryad.9s4mw6mm3
10.5061/dryad.6gc6h
10.6084/m9.figshare.14450793.v1
10.5061/dryad.8cz8w9gqs
10.17178/emaa_h(13c)n_rotation_e05542a3
10.6084/m9.figshare.16851153
10.26302/sshade/experiment_cc_20180723_01
10.26302/sshade/experiment_gs_20170713_004
10.17178/emaa_dcn_rotation_0d1b1e03
10.6084/m9.figshare.25282850.v1
10.5281/zenodo.10205606
10.26302/sshade/experiment_sr_20200204_00
10.34746/cahierscostech48
10.17178/ohmcv.smo.cla.13-14.1
10.6084/m9.figshare.15033202
10.26302/sshade/experiment_bs_20200103_001
10.26302/sshade/experiment_dt_20170706_003
10.6084/m9.figshare.22625617
10.6084/m9.figshare.22735399.v1
10.26302/sshade/experiment_cl_20181202_03
10.5281/zenodo.10639557
10.7280/d1z69g
10.26302/sshade/experiment_bs_20231304_001
10.26302/sshade/experiment_gs_20161207_001
10.6084/m9.figshare.14737121.v1
10.5061/dryad.dh478
10.5061/dryad.k98sf7m98
10.6084/m9.figshare.c.4974425.v1
10.6084/m9.figshare.13323652.v1
10.5061/dryad.612jm643q
10.6084/m9.figshare.c.5329928.v1
10.26302/sshade/experiment_bs_20201114_014
10.26302/sshade/experiment_ml_20171221_003
10.6084/m9.figshare.c.6853693
10.26302/sshade/experiment_dt_20050706_001
10.17178/amma-catch.cl.rain_o
10.26302/sshade/experiment_gs_20170712_003
10.26302/sshade/experiment_bs_20130125_002
10.17178/gnss.products.japan_gipsyx.kinematic.2011
10.26302/sshade/bandlist_raman_s2o_ar-matrix
10.15778/resif.4c2011
10.26302/sshade/experiment_cl_20181201_03
10.26302/sshade/experiment_lb_20221017_001
10.26302/sshade/experiment_lb_20221102_001
10.17178/emaa_(38ar)h-plus_rotation_4186bb1b
10.17178/cryobsclim.clb.all
10.5061/dryad.jm63xsj7b
10.6084/m9.figshare.15033205
10.26302/sshade/bandlist_abs_ch3oh_alpha-ch3oh
10.17178/ohmcv.dsd.vb2.12-16.1
10.26302/sshade/experiment_bs_20191230_011
10.26302/sshade/experiment_rc_20191104_000
10.6084/m9.figshare.23822166.v1
10.26302/sshade/experiment_ak_20141124_1
10.26302/sshade/experiment_ak_20141107_1
10.26302/sshade/experiment_gs_20170712_001
10.6084/m9.figshare.16786759
10.5061/dryad.hmgqnk9hh
10.15778/resif.yp2012
10.26302/sshade/experiment_tg_20181312_002
10.6084/m9.figshare.23822151
10.6084/m9.figshare.c.6712342.v1
10.5281/zenodo.10205580
10.6084/m9.figshare.21285659.v1
10.6084/m9.figshare.22621187
10.26302/sshade/experiment_ak_20141105_1
10.26302/sshade/experiment_zy_20180216_001
10.26302/sshade/bandlist_raman_huntite
10.48380/061t-ae68
10.17178/zaa_soil_temp.pne
10.26302/sshade/experiment_cl_20210211_001
10.5281/zenodo.10654575
10.5281/zenodo.10492230
10.6084/m9.figshare.24196813.v1
10.26302/sshade/experiment_op_20180115_005
10.6084/m9.figshare.22625620
10.26302/sshade/experiment_gs_20170713_007
10.60527/3ygq-v524
10.26302/sshade/experiment_sm_20210422_90
10.5061/dryad.st350
10.6084/m9.figshare.12991756.v1
10.6084/m9.figshare.20221985
10.26302/sshade/experiment_gm_20190813_001
10.5061/dryad.2fqz612m4
10.5281/zenodo.10652455
10.6084/m9.figshare.16786732.v1
10.17178/cryobsclim.cdp.2018.hourlysnow
10.6084/m9.figshare.23816832.v2
10.17178/emaa_para-nd3_rotation_da7fd1bd
10.6084/m9.figshare.c.6650322
10.26302/sshade/experiment_zd_20160831_01
10.5061/dryad.kc7h9
10.6084/m9.figshare.20221976
10.6084/m9.figshare.14176175
10.18709/perscido.2018.09.ds236
10.6084/m9.figshare.12270152.v1
10.6084/m9.figshare.16851063.v1
10.6084/m9.figshare.22625635.v1
10.7914/sn/xq_2020
10.26302/sshade/experiment_jg_20091029_001
10.17178/emaa_ortho-h2(13c)o_rotation_e08b64e2
10.6084/m9.figshare.25329673
10.6084/m9.figshare.16851111
10.26302/sshade/experiment_cl_20180316_03
10.6084/m9.figshare.22655339
10.26302/sshade/experiment_sr_20200204_01
10.17178/emaa_so2_rotation_cdf6a320
10.26302/sshade/experiment_ak_20141031_1
10.17178/emaa_oh_hyperfine_72d6c3c5
10.15778/resif.xg2014
10.18709/perscido.2020.03.ds300
10.26302/sshade/experiment_op_20201112_001
10.26302/sshade/bandlist_abs_ch3cn_beta-ch3cn
10.18709/perscido.2017.10.ds144
10.6084/m9.figshare.12421367
10.6084/m9.figshare.16851156.v1
10.5061/dryad.jm58p
10.17178/ohmcv.dsd.val.12-16.1
10.26302/sshade/experiment_dt_20180313_001
10.26302/sshade/experiment_vc_20070129_001
10.5281/zenodo.10688119
10.6084/m9.figshare.23488967.v1
10.15778/resif.8n2021
10.6084/m9.figshare.c.5329928
10.5061/dryad.000000046
10.6084/m9.figshare.20080019.v4
10.26302/sshade/experiment_op_20200701_001
10.6084/m9.figshare.16786756
10.17178/emaa_dcn_hyperfine_0b4f7ab6
10.5281/zenodo.10022526
10.17178/cryobsclim.clb.safran
10.5061/dryad.b2rbnzsfw
10.6084/m9.figshare.c.6795368.v1
10.6084/m9.figshare.c.6606032.v1
10.6084/m9.figshare.15033202.v1
10.7280/d1gw91
10.26302/sshade/experiment_cl_20181201_06
10.15778/resif.7h2010
10.5281/zenodo.10688120
10.15778/resif.zf2015
10.26302/sshade/experiment_rc_20200506_000
10.26302/sshade/bandlist_abs_c2h2_c2h2-ii
10.6084/m9.figshare.c.6795368
10.6084/m9.figshare.23575375.v1
10.6084/m9.figshare.16851132
10.5061/dryad.rm2n41j
10.26302/sshade/experiment_bs_20191226_001
10.6084/m9.figshare.13632732.v1
10.26302/sshade/experiment_lb_20140114_001
10.6084/m9.figshare.22649273
10.6084/m9.figshare.c.6804540.v1
10.17178/teil_lidar
10.60527/cymb-t312
10.5061/dryad.d51c5b019
10.6084/m9.figshare.16786771.v1
10.26302/sshade/experiment_lb_20200914_001
10.6084/m9.figshare.22625608.v1
10.6084/m9.figshare.12270182
10.17178/amma-catch.pa.sw_snf
10.6084/m9.figshare.23488967
10.25384/sage.21845348
10.6084/m9.figshare.22621187.v1
10.18709/perscido.2023.06.ds395
10.6084/m9.figshare.22649273.v1
10.5061/dryad.dq444fr
10.6084/m9.figshare.c.5226946
10.6084/m9.figshare.c.6596467.v1
10.5281/zenodo.10069275
10.6084/m9.figshare.c.6590285
10.6084/m9.figshare.23822157.v1
10.7280/d11h3x
10.26302/sshade/experiment_sb_20200430_001
10.26302/sshade/experiment_op_20201209_001
10.26302/sshade/bandlist_raman_alpha_na2caco3-2
10.26302/sshade/bandlist_raman_dolomite
10.17178/emaa_sio_rotation_424f5a89
10.15778/resif.1e2008
10.5281/zenodo.10534569
10.17178/amma-catch.cl.rain_gt
10.6084/m9.figshare.14450784.v1
10.17178/zaa_soil_temp.odyssee
10.26302/sshade/experiment_zed_20230921_01
10.26302/sshade/experiment_op_20180111_001
10.6084/m9.figshare.22625611
10.26302/sshade/experiment_bs_20191214_001
10.17178/amma-catch.pa.met_snns
10.5061/dryad.689110r
10.5281/zenodo.10048443
10.5281/zenodo.8269854
10.5281/zenodo.10640566
10.6084/m9.figshare.c.5114735
10.17178/emaa_cs_rotation_d0c6405a
10.6084/m9.figshare.22807641.v1
10.26302/sshade/experiment_zed_20230704_01
10.5281/zenodo.7603975
10.35088/hh7x-gr77
10.34929/sep.vi06.151
10.26302/sshade/experiment_dt_20180117_003
10.25384/sage.c.6567921
10.26302/sshade/experiment_dt_20180117_004
10.6084/m9.figshare.c.5487977.v1
10.6084/m9.figshare.12291698
10.17178/emaa_meta-nd3_rotation_4181d476
10.26302/sshade/experiment_kd_20220525
10.6084/m9.figshare.23575381.v1
10.5061/dryad.03mn0
10.26302/sshade/experiment_lb_20210517_001
10.5061/dryad.g72v731
10.26302/sshade/experiment_bs_20201114_012
10.6084/m9.figshare.c.6593063
10.26302/sshade/experiment_bs_20120925_011
10.26302/sshade/experiment_ak_20141121_1
10.6084/m9.figshare.25282850
10.6084/m9.figshare.12991756
10.17178/emaa_(13c)h-plus_rotation_4b641db0
10.26302/sshade/experiment_cl_20180316_02
10.25577/m0dc-n549
10.17178/emaa_ortho-nh3_rotation_331d9739
10.6084/m9.figshare.23816832
10.6084/m9.figshare.12886129
10.5281/zenodo.10634905
10.6084/m9.figshare.25097340
10.17178/emaa_a-ch3(18o)h_rotation_c65648f1
10.6084/m9.figshare.c.7009820
10.5281/zenodo.10069276
10.5281/zenodo.10005439
10.26302/sshade/experiment_lb_20231006_001
10.26302/sshade/experiment_bs_20191230_001
10.6084/m9.figshare.c.5013470.v1
10.6084/m9.figshare.16851135
10.26302/sshade/experiment_hm_20170913_001
10.6084/m9.figshare.c.6257914.v1
10.26302/sshade/experiment_bs_20191012_100
10.6084/m9.figshare.24202747.v1
10.6084/m9.figshare.16786735.v1
10.15778/resif.yv2011
10.17632/s62jkk3fkt.1
10.17178/emaa_para-h2(34s)_rotation_52d67276
10.17178/amma-catch.ce.run_ncw
10.15778/resif.1t2018
10.6084/m9.figshare.23551874.v1
10.26302/sshade/bandlist_raman_gaspeite
10.17178/ohmcv.dsd.pvi.11-14.1
10.6084/m9.figshare.16851108
10.6084/m9.figshare.16786756.v1
10.17178/emaa_(13c)(17o)_hyperfine_164ecb70
10.6084/m9.figshare.c.7089974.v1
10.6084/m9.figshare.16786753.v1
10.6084/m9.figshare.16851132.v1
10.26302/sshade/experiment_dm_20131017_001
10.17178/amma-catch.cl.rain_cotonou
10.5167/uzh-237519
10.26302/sshade/experiment_rc_20191112_000
10.17178/emaa_c-plus_fine_0b142c87
10.13127/efsm20
10.26302/sshade/bandlist_abs_c4h2_am-c4h2
10.17178/emaa_n2d-plus_hyperfine_39813cf9
10.26302/sshade/experiment_soc_20181115_005
10.6084/m9.figshare.16786774.v1
10.6084/m9.figshare.c.5673672
10.6084/m9.figshare.c.5705595
10.6084/m9.figshare.c.6690029.v1
10.17178/emaa_h(13c)o-plus_rotation_326f961f
10.5281/zenodo.10852247
10.26302/sshade/experiment_gm_20190813_002
10.6084/m9.figshare.12270158.v1
10.26302/sshade/experiment_sr_20200204_02
10.17178/emaa_co_rotation_3d0e1a5c
10.13140/rg.2.2.10311.55208
10.26302/sshade/experiment_sb_20210129_001
10.6084/m9.figshare.c.5282401
10.60527/nnhk-n811
10.6084/m9.figshare.c.4968908.v1
10.15778/resif.xs2010
10.18709/perscido.2022.09.ds376
10.17178/emaa_ortho-nh3_rotation-hot_2c68197a
10.6084/m9.figshare.c.5523088
10.26302/sshade/experiment_lb_20210512_001
10.26302/sshade/experiment_gp_20181107_001
10.26302/sshade/experiment_bs_20191012_400
10.26302/sshade/experiment_dt_20180117_001
10.6084/m9.figshare.22625632
10.6084/m9.figshare.24202753.v1
10.6084/m9.figshare.23822154.v1
10.57757/iugg23-2595
10.26302/sshade/experiment_lb_20201104_001
10.5281/zenodo.10265625
10.17178/emaa_para-nh2d_rotation_bc5106bb
10.26302/sshade/experiment_sb_20200814_001
10.26302/sshade/bandlist_raman_kutnohorite
10.26302/sshade/experiment_lb_20171025_001
10.26302/sshade/experiment_st_20180418_001
10.26302/sshade/bandlist_abs_co_alpha-co
10.26302/sshade/experiment_cc_20190501_01
10.17178/emaa_n2h-plus_hyperfine_e9d3c782
10.6084/m9.figshare.20222461
10.5281/zenodo.10511344
10.26302/sshade/bandlist_raman_calcite
10.26302/sshade/experiment_lb_20191211_003
10.26302/sshade/experiment_bs_20130114_001
10.26302/sshade/experiment_mc_20141201_001
10.5061/dryad.6171j
10.17178/amma-catch.pa.h2oflux_snnr
10.17178/emaa_c(15n)_hyperfine_a1b197e3
10.60527/z64w-t441
10.17178/amma-catch.cl.run_od
10.60527/kr45-gv91
10.6084/m9.figshare.16786732
10.26302/sshade/experiment_dt_20170706_005
10.26302/sshade/bandlist_abs_c2n2-c2n2-i
10.5061/dryad.0p2ngf1w2
10.5281/zenodo.10440364
10.5061/dryad.1jwstqk1p
10.6084/m9.figshare.c.7081935.v1
10.15778/resif.9c2019
10.6084/m9.figshare.16851090.v1
10.6084/m9.figshare.c.6910186.v1
10.26302/sshade/experiment_lm_20220303_bas
10.26302/sshade/experiment_yd_20220407_010
10.26302/sshade/experiment_dm_20131025_003
10.5281/zenodo.10005462
10.6084/m9.figshare.16786747
10.17178/emaa_sh-plus_hyperfine_da4d4f7a
10.6084/m9.figshare.16851159
10.17178/emaa_dco-plus_rotation_0e47c7b0
10.6084/m9.figshare.c.6077710.v1
10.6084/m9.figshare.16851084
10.15778/resif.yb2000
10.17178/amma-catch.ce.sw_odc
10.26302/sshade/experiment_jg_20091029_003
10.26302/sshade/experiment_ik_20180418_002
10.60527/zsq8-tz04
10.5061/dryad.vx0k6djp4
10.6084/m9.figshare.22620895
10.26302/sshade/experiment_bs_20120923_001
10.6084/m9.figshare.c.7046484
10.5281/zenodo.10036360
10.18709/perscido.2018.07.ds225
10.6084/m9.figshare.16851126
10.5281/zenodo.10607086
10.6084/m9.figshare.13323649
10.5061/dryad.m7m72
10.6084/m9.figshare.22620037.v1
10.17178/amma-catch.cl.vegherb_g
10.6084/m9.figshare.c.5226946.v1
10.5061/dryad.v41ns1rwx
10.5061/dryad.ff138
10.6084/m9.figshare.16851111.v1
10.6084/m9.figshare.13525202.v1
10.5061/dryad.wpzgmsbp2
10.26302/sshade/experiment_dl_20181107_001
10.6084/m9.figshare.22599661
10.5061/dryad.cv45n3b
10.6084/m9.figshare.22599661.v1
10.17178/draixbleone_gal_rob_dsd_1420
10.6084/m9.figshare.c.5013470
10.6084/m9.figshare.c.7009820.v1
10.5281/zenodo.10782399
10.5281/zenodo.10005440
10.26302/sshade/experiment_rc_20200513_000
10.5061/dryad.rjdfn2z7p
10.17178/emaa_para-nd3_hyperfine_416718be
10.6084/m9.figshare.22609319
10.18709/perscido.2020.01.ds289
10.17178/emaa_ch2nh_hyperfine_9027c066
10.26302/sshade/experiment_bs_20130120_004
10.26302/sshade/experiment_sb_20210219_001
10.6084/m9.figshare.c.6077576.v1
10.15778/resif.yr1999
10.13140/rg.2.2.13119.66720
10.48440/gfz.4.8.2021.002
10.60527/rdw0-ps12
10.26302/sshade/experiment_cl_20181201_04
10.6084/m9.figshare.c.6250158.v1
10.6084/m9.figshare.25341247.v1
10.26302/sshade/experiment_lm_20221111_0001
10.17178/emaa_(13c)o_rotation_30dfe01d
10.6084/m9.figshare.14737121
10.6084/m9.figshare.25329673.v1
10.26302/sshade/bandlist_raman_ch3cn_alpha-ch3cn
10.26302/sshade/experiment_la_20201113_000
10.6084/m9.figshare.20221967
10.17178/emaa_para-nhd2_rotation_8fdc530e
10.18709/perscido.2020.09.ds330
10.5061/dryad.ksn02v746
10.17178/gnss.products.epos.2019.rapid
10.5281/zenodo.10000775
10.17178/draixbleone_gal_ain_dsd_1920
10.6084/m9.figshare.22807641
10.6084/m9.figshare.13632735.v1
10.18709/perscido.2016.10.ds06
10.6084/m9.figshare.16786744.v1
10.26302/sshade/experiment_sb_20200608_001
10.26302/sshade/experiment_hm_20160512_001
10.26302/sshade/experiment_dt_20180117_006
10.6084/m9.figshare.22625620.v1
10.5281/zenodo.10693937
10.15778/resif.xg2019
10.26302/sshade/experiment_lb_20170731_004
10.26302/sshade/experiment_bs_20200815_100
10.26302/sshade/experiment_gv_20181121_001
10.17178/ohmcv.dsd.tou.12-16.1
10.26302/sshade/experiment_dt_20170706_008
10.6084/m9.figshare.12291707.v1
10.6084/m9.figshare.c.6583718
10.6084/m9.figshare.25341247
10.26302/sshade/experiment_lb_20191220_002
10.26302/sshade/experiment_lb_20191220_004
10.26302/sshade/experiment_zy_20180208_000
10.5281/zenodo.10222606
10.5061/dryad.bnzs7h4dx
10.5061/dryad.v475g
10.6084/m9.figshare.22027566
10.5061/dryad.3r2280ggb
10.60527/zcmq-v747
10.18709/perscido.2023.05.ds394
10.15778/resif.zr2020
10.15778/resif.rg
10.18709/perscido.2023.08.ds398
10.17178/amma-catch.ae.h2oflux_g
10.5061/dryad.wh70rxwpz
10.5281/zenodo.10578349
10.6084/m9.figshare.22620031.v1
10.26302/sshade/experiment_ak_20141112_1
10.48380/5662-yk90
10.6084/m9.figshare.20221988.v1
10.26302/sshade/experiment_ml_20171219_001
10.15778/resif.nd
10.6084/m9.figshare.20221979.v1
10.25647/liepp.pb.11
10.18709/perscido.2017.12.ds166
10.26302/sshade/experiment_op_20180115_004
10.6084/m9.figshare.c.6424523.v2
10.6084/m9.figshare.24953169
10.6084/m9.figshare.c.6851803.v1
10.5281/zenodo.10419097
10.17178/draixbleone_gal_ain_precip_1920
10.5061/dryad.83bk3jb0h
10.5281/zenodo.10222605
10.6084/m9.figshare.12926231.v1
10.26302/sshade/experiment_sb_20200117_002
10.26302/sshade/experiment_sb_20200609_001
10.26302/sshade/experiment_vc_20050727_001
10.15778/resif.yz2004
10.6084/m9.figshare.c.6821914
10.6084/m9.figshare.20221970.v1
10.18709/perscido.2020.05.ds314
10.26302/sshade/experiment_mc_20181026_1
10.17178/amma-catch.ce.wchem_od
10.6084/m9.figshare.c.6575881
10.17178/amma-catch.ce.vegsoil_gh
10.5281/zenodo.10055462
10.26302/sshade/experiment_hm_20170913_010
10.6084/m9.figshare.c.5257892
10.26302/sshade/experiment_op_20180717_001
10.26302/sshade/bandlist_abs_hcn_hcn-ii
10.26302/sshade/experiment_bs_20121219_001
10.15778/resif.3c2019
10.6084/m9.figshare.12270158
10.18709/perscido.2019.04.ds242
10.17178/emaa_c(17o)_hyperfine_0ecc62b5
10.5281/zenodo.10650804
10.26302/sshade/experiment_bs_20200813_100
10.5281/zenodo.10200548
10.26302/sshade/experiment_op_20200623_001
10.26302/sshade/experiment_sb_20190819_001
10.6084/m9.figshare.12886138
10.5061/dryad.6q573n621
10.6084/m9.figshare.16786765.v1
10.26302/sshade/experiment_nf_20220524_0001
10.5281/zenodo.10262983
10.17178/emaa_para-h2s_rotation_f76b8b70
10.17178/emaa_e-(13c)h3oh_rotation_26e2c2d2
10.26302/sshade/experiment_gl_20150102_1
10.26302/sshade/experiment_sb_20210203_001
10.26302/sshade/bandlist_raman_nitratine
10.6084/m9.figshare.c.5705595.v1
10.17178/cryobsclim.cdp.2018.soil
10.57757/iugg23-4598
10.17178/draixbleone_gal_rob_met_1420
10.18709/perscido.2019.10.ds267
10.26302/sshade/bandlist_raman_n2_beta-n2
10.15778/resif.yx2001
10.6084/m9.figshare.13646872
10.6084/m9.figshare.16851078
10.17178/emaa_para-h2o_rotation_18d206fb
10.26302/sshade/experiment_bs_20130124_002
10.5061/dryad.qrfj6q5hv
10.5281/zenodo.10635624
10.7280/d1mm37
10.17178/emaa_ch-plus_rotation_47eb31e0
10.5061/dryad.mc50c
10.26302/sshade/experiment_dt_20170706_006
10.6084/m9.figshare.22620895.v1
10.6084/m9.figshare.16851108.v1
10.17178/draixbleone_gal_rob_disch_0719
10.6084/m9.figshare.13525199.v1
10.17178/ohmcv.dsd.mre.12-16.1
10.17178/emaa_hc(15n)_rotation_0d5ef109
10.26302/sshade/experiment_bs_20201114_015
10.26302/sshade/bandlist_raman_beta_k2caco3-2
10.26302/sshade/experiment_vc_20050726_001
10.18709/perscido.2016.11.ds08
10.15778/resif.yj2015
10.25384/sage.c.6567921.v1
10.60662/0yc3-e898
10.26302/sshade/experiment_bs_20130120_003
10.18709/perscido.2017.11.ds185
10.26302/sshade/bandlist_abs_s2o_am-so2-matrix
10.26302/sshade/experiment_lb_20170731_001
10.26302/sshade/experiment_ml_20171219_003
10.17178/cryobsclim.clb.lacblanc
10.23658/taltech.43/2020
10.17178/ohmcv.dsd.sef.12-14.1
10.5281/zenodo.10276481
10.26302/sshade/bandlist_raman_hcn_hcn-ii
10.6084/m9.figshare.23822166
10.5061/dryad.jq2bvq8bm
10.17178/ohmcv.rea.cev.07-14.1
10.26302/sshade/experiment_ak_20141111_1
10.6084/m9.figshare.c.6584765
10.26302/sshade/bandlist_raman_co_alpha-co
10.26302/sshade/experiment_zed_20230519_01
10.17178/amma-catch.cl.pond_nc
10.6084/m9.figshare.12991759.v1
10.6084/m9.figshare.22625623.v1
10.17178/emaa_hd_rovibration_805a7aa5
10.26302/sshade/experiment_fs_20201007_001
10.6084/m9.figshare.12886132.v1
10.17178/emaa_ortho-h2(18o)_rotation_1ee1c3c9
10.6084/m9.figshare.21285665.v1
10.6084/m9.figshare.21285662
10.26302/sshade/experiment_ak_20141117_1
10.6084/m9.figshare.23575378.v1
10.6084/m9.figshare.12421358
10.26302/sshade/experiment_sp_20210814
10.5061/dryad.5s77q
10.26302/sshade/experiment_gl_20150104_1
10.6084/m9.figshare.16786747.v1
10.26302/sshade/experiment_gs_20170713_006
10.26302/sshade/experiment_ml_20171220_001
10.60527/evrp-sc36
10.6084/m9.figshare.22610681
10.17178/ohmcv.all
10.26302/sshade/experiment_bs_20200202_001
10.5061/dryad.f4qrfj6wr
10.6084/m9.figshare.16786762
10.5061/dryad.283pp
10.26302/sshade/bandlist_abs_nh3_nh3-i
10.6084/m9.figshare.c.6842762
10.6084/m9.figshare.16786741
10.17178/amma-catch.ce.sap_odc
10.26302/sshade/experiment_bs_20120924_011
10.17178/emaa_e-ch3(18o)h_rotation_da227d5c
10.26302/sshade/experiment_tg_20180504_001
10.5061/dryad.5b58400
10.5061/dryad.rv0k6
10.6084/m9.figshare.12421352
10.6084/m9.figshare.22877643
10.26302/sshade/bandlist_raman_norsethite
10.5281/zenodo.10400475
10.26302/sshade/experiment_gp_20180208_001
10.6084/m9.figshare.16851105.v1
10.48380/cwsp-mj37
10.26302/sshade/experiment_ik_20180419_001
10.17178/zaa_soil_temp.floresentinelle
10.6084/m9.figshare.c.5523088.v1
10.6084/m9.figshare.c.6077710
10.6084/m9.figshare.c.6584765.v1
10.26302/sshade/experiment_op_20180119_001
10.26302/sshade/experiment_ak_20141102_1
10.18709/perscido.2023.12.ds403
10.17178/amma-catch.ce.rain_nc
10.18709/perscido.2018.11.ds155
10.17178/emaa_cn_hyperfine_d9a30dbd
10.6084/m9.figshare.12291716.v1
10.5061/dryad.f7h12
10.6084/m9.figshare.23575372
10.26302/sshade/experiment_ik_20210602_001
10.26302/sshade/experiment_ml_20171219_002
10.6084/m9.figshare.c.7046484.v1
10.5281/zenodo.10205605
10.26302/sshade/experiment_rc_20200622_000
10.26302/sshade/bandlist_abs_h2o_h2o-ih
10.6084/m9.figshare.24091564
10.26302/sshade/experiment_bms_20120101_001
10.26302/sshade/bandlist_raman_spherocobaltite
10.26302/sshade/experiment_cl_20181201_01
10.6084/m9.figshare.24165071
10.17178/emaa_ch2nh_rotation_6a3d5ab2
10.26302/sshade/experiment_dt_20180117_007
10.17178/amma-catch.ce.run_odc
10.17178/amma-catch.cl.gwatwell_n
10.26302/sshade/experiment_kd_20170711
10.26302/sshade/experiment_dt_20171221_001
10.5281/zenodo.10587575
10.15778/resif.ya2009
10.18709/perscido.2022.06.ds370
10.17178/emaa_para-h2(18o)_rotation_4ebe92f7
10.26302/sshade/experiment_dt_20180117_002
10.60527/bjb2-pj78
10.6084/m9.figshare.21285659
10.6084/m9.figshare.23822163
10.26302/sshade/experiment_ak_20141118_1
10.26302/sshade/bandlist_abs_s2o_ar-matrix
10.17178/gnss.products.europe
10.5281/zenodo.10276480
10.6084/m9.figshare.12886126
10.6084/m9.figshare.22620043
10.3217/9rrz9-ywt68
10.17178/amma-catch.pa.schem_snfd
10.6084/m9.figshare.c.5129698
10.17178/ohmcv.dsd.vb3.12-16.1
10.26302/sshade/experiment_gl_20150103_1
10.48380/2gzr-9q70
10.5281/zenodo.10715585
10.6084/m9.figshare.22075664.v2
10.25364/19.2022.7.3
10.26302/sshade/experiment_rc_20191124_000
10.5061/dryad.t8534
10.6084/m9.figshare.16851093
10.15778/resif.xz2020
10.15778/resif.x12021
10.26302/sshade/experiment_cl_20180316_01
10.6084/m9.figshare.24202750
10.48390/0005-gz84
10.26302/sshade/experiment_ak_20141125_2
10.26302/sshade/experiment_gm_20221013_001
10.6084/m9.figshare.c.6424523
10.6084/m9.figshare.c.6604292.v1
10.6084/m9.figshare.23575360
10.5061/dryad.d2547d810
10.25384/sage.c.6377642
10.26302/sshade/experiment_zy_20180216_000
10.6084/m9.figshare.c.6910186
10.6084/m9.figshare.22735402
10.26302/sshade/bandlist_abs_n2_beta-n2
10.5281/zenodo.10551644
10.6084/m9.figshare.c.6592129
10.6084/m9.figshare.14870669.v1
10.17178/cryobsclim.clb.muzelle
10.6084/m9.figshare.16786741.v1
10.17178/cryobsclim.clb.dem
10.5061/dryad.78642
10.6084/m9.figshare.22609322
10.5061/dryad.dc25730
10.6084/m9.figshare.c.5105152
10.6084/m9.figshare.c.6575881.v1
10.17178/gnss.products.japan
10.26302/sshade/experiment_mb_20230522_0001
10.6084/m9.figshare.20235676.v1
10.6084/m9.figshare.16851117
10.25384/sage.23826552
10.17178/emaa_ortho-c3h2_rotation_caf26a12
10.6084/m9.figshare.16786765
10.26302/sshade/experiment_jg_20090226_003
10.6084/m9.figshare.23822160.v1
10.5061/dryad.6226d
10.26302/sshade/experiment_jf_20220531_001
10.6084/m9.figshare.23575390
10.5061/dryad.q573n5tm6
10.6084/m9.figshare.16851156
10.17178/amma-catch.cl.raind_gh
10.6084/m9.figshare.c.5394711
10.26302/sshade/experiment_bs_20130125_001
10.26302/sshade/experiment_lm_20220304_mtkl
10.26302/sshade/experiment_lb_20191211_005
10.17178/emaa_para-h2c(18o)_rotation_8f130c2d
10.26302/sshade/experiment_sb_20200629_001
10.26302/sshade/bandlist_raman_siderite
10.57757/iugg23-4563
10.26302/sshade/experiment_yd_20220602_010
10.6084/m9.figshare.c.6272697.v1
10.15778/resif.yr2013
10.17178/ohmcv.dsd.ale.12-16.1
10.7914/wqvg-2272
10.6084/m9.figshare.c.6771537.v1
10.17178/amma-catch.pa.met_snnr
10.26302/sshade/experiment_sb_20210115_001
10.6084/m9.figshare.20080019
10.6084/m9.figshare.c.5487977
10.26302/sshade/experiment_soc_20201214_001
10.26302/sshade/experiment_sb_20200403_001
10.57757/iugg23-4534
10.6084/m9.figshare.22620043.v1
10.5061/dryad.xksn02vn4
10.7280/d1wt11
10.6084/m9.figshare.c.6604292
10.17178/emaa_n(15n)h-plus_hyperfine_4f2d77ce
10.26302/sshade/experiment_tg_20181312_001
10.17178/amma-catch.benin
10.26302/sshade/experiment_lb_20180718_001
10.26302/sshade/experiment_op_20200212_001
10.17178/cryobsclim.clb.col
10.25647/liepp.wp.36
10.17178/amma-catch.ce.sw_nc
10.26302/sshade/experiment_jg_20091028_001
10.26302/sshade/experiment_sb_20210324_001
10.6084/m9.figshare.23575384
10.17178/emaa_para-(13c)c2h2_rotation_62296b37
10.17178/amma-catch.ae.h2oflux_odc
10.17178/zaa_soil_temp.bioclim
10.25384/sage.23826552.v1
10.6084/m9.figshare.c.5394711.v1
10.6084/m9.figshare.23575372.v1
10.6084/m9.figshare.22625614.v1
10.26302/sshade/experiment_hm_20180417_001
10.26302/sshade/experiment_bms_20160101_001
10.17178/emaa_c2h_hyperfine_e0d01d58
10.6084/m9.figshare.24647123
10.6084/m9.figshare.22613066.v1
10.6084/m9.figshare.c.6650322.v1
10.26302/sshade/experiment_op_20180717_003
10.6084/m9.figshare.c.6592858.v1
10.5281/zenodo.10050502
10.7280/d1667w
10.26302/sshade/experiment_ml_20171220_002
10.26302/sshade/experiment_ml_20171219_004
10.6084/m9.figshare.22649276
10.26302/sshade/experiment_lb_20191220_001
10.6084/m9.figshare.c.6077576
10.6084/m9.figshare.12291707
10.18709/perscido.2023.06.ds392
10.5281/zenodo.10053093
10.6084/m9.figshare.16786774
10.15778/resif.yt2001
10.17178/emaa_para-nh2_hyperfine_0d542831
10.6084/m9.figshare.16851114
10.26302/sshade/experiment_bs_20120925_001
10.6084/m9.figshare.12886138.v1
10.17178/amma-catch.ce.veg_ncw
10.6084/m9.figshare.c.5279142
10.5281/zenodo.10654576
10.17178/emaa_a-ch3oh_rotation_aa19a665
10.6084/m9.figshare.24483508
10.6084/m9.figshare.c.6627480
10.26302/sshade/experiment_pc_20220301_001
10.26302/sshade/experiment_gm_20190903_001
10.5281/zenodo.10423906
10.5281/zenodo.10022527
10.5281/zenodo.8269855
10.6084/m9.figshare.c.7007130
10.26302/sshade/bandlist_raman_n2_alpha-n2
10.26302/sshade/experiment_ak_20141119_1
10.15778/resif.xf2018
10.18709/perscido.2017.06.ds80
10.17178/amma-catch.ae.shflux_odc
10.26302/sshade/experiment_bms_20150101_001
10.60527/kzta-f520
10.26302/sshade/experiment_ak_20141120_1
10.6084/m9.figshare.14870669
10.26302/sshade/bandlist_raman_smithsonite
10.26302/sshade/experiment_gl_20150105_1
10.26302/sshade/bandlist_raman_ankerite
