10.5281/zenodo.7275468
10.5281/zenodo.8319001
10.5281/zenodo.6793401
10.5061/dryad.v475g
10.5281/zenodo.3354711
10.5281/zenodo.5717483
10.5061/dryad.pc866t1k5
10.5281/zenodo.8410346
10.3897/rio.7.e77750.figure8b
10.5281/zenodo.4632426
10.5061/dryad.mw6m905tc
10.5281/zenodo.8147580
10.5281/zenodo.7308352
10.5281/zenodo.8101891
10.5281/zenodo.5145755
10.5281/zenodo.4048589
10.5061/dryad.3bk3j9kph
10.5281/zenodo.6913393
10.5281/zenodo.6977303
10.5281/zenodo.4655840
10.5281/zenodo.3628203
10.3897/neobiota.62.52934.suppl3
10.5281/zenodo.3541149
10.5061/dryad.6226d
10.5281/zenodo.6104368
10.5281/zenodo.4776419
10.5281/zenodo.3759385
10.5281/zenodo.5243189
10.5281/zenodo.4603782
10.5281/zenodo.10341149
10.5281/zenodo.7114168
10.5281/zenodo.4790667
10.5281/zenodo.5842110
10.5281/zenodo.6671769
10.5281/zenodo.2575055
10.5281/zenodo.6221153
10.5281/zenodo.7961207
10.5281/zenodo.6787572
10.5281/zenodo.6822165
10.5281/zenodo.4628245
10.5281/zenodo.59144
10.5281/zenodo.6074472
10.5281/zenodo.8104792
10.5061/dryad.bnzs7h4ds
10.5281/zenodo.4264747
10.5281/zenodo.10005440
10.5281/zenodo.4687049
10.5281/zenodo.3630439
10.5281/zenodo.2651652
10.5281/zenodo.5242859
10.5281/zenodo.290428
10.5281/zenodo.6400739
10.5281/zenodo.7558920
10.5281/zenodo.10004947
10.3897/rio.2.e11321.figure2
10.5281/zenodo.6760050
10.5281/zenodo.7580589
10.5281/zenodo.6055786
10.5281/zenodo.5799465
10.5281/zenodo.5835995
10.5281/zenodo.4646678
10.5281/zenodo.5501338
10.5281/zenodo.8362750
10.7280/D11H3X
10.5281/zenodo.7937759
10.5281/zenodo.6802738
10.5281/zenodo.3514728
10.5281/zenodo.6303309
10.5281/zenodo.5576201
10.5281/zenodo.4282267
10.5281/zenodo.6803257
10.3897/BDJ.8.e48623.figure2b
10.5281/zenodo.3454628
10.5061/dryad.jq2bvq8bm
10.5281/zenodo.8272736
10.5061/dryad.m0cfxpp06
10.5061/dryad.n13hn
10.7280/D1667W
10.5281/zenodo.6860555
10.5281/zenodo.3928606
10.5281/zenodo.10634905
10.5281/zenodo.10223402
10.5281/zenodo.4115984
10.5061/dryad.qrfj6q5hv
10.5281/zenodo.8289247
10.5281/zenodo.3925378
10.5281/zenodo.6909792
10.5281/zenodo.4603786
10.5281/zenodo.7928420
10.5281/zenodo.8144596
10.5281/zenodo.4972594
10.5281/zenodo.7119224
10.5281/zenodo.7307797
10.5281/zenodo.44754
10.5281/zenodo.8388918
10.5281/zenodo.10370097
10.5281/zenodo.3696502
10.5281/zenodo.8333896
10.5281/zenodo.4302006
10.5281/zenodo.10207347
10.3897/rio.7.e77750.figure7
10.5281/zenodo.7464081
10.5061/dryad.6t1g1jx0m
10.5281/zenodo.7537055
10.5281/zenodo.8388930
10.5281/zenodo.5237269
10.5281/zenodo.1462854
10.5281/zenodo.3552787
10.5281/zenodo.4639769
10.5281/zenodo.10619442
10.5281/zenodo.7056781
10.5061/dryad.b2rbnzsp7
10.5281/zenodo.8161141
10.3897/neobiota.62.52934.suppl2
10.5281/zenodo.4498331
10.5281/zenodo.10578349
10.5281/zenodo.7890462
10.5281/zenodo.3966773
10.5061/dryad.78642
10.7280/D1595V
10.5061/dryad.dv41ns1wf
10.5281/zenodo.4008396
10.5281/zenodo.4029598
10.5061/dryad.k98sf7m98
10.5281/zenodo.6568218
10.5281/zenodo.5763672
10.5281/zenodo.4244325
10.3897/natureconservation.49.82931.suppl2
10.5281/zenodo.3557199
10.5281/zenodo.10165854
10.5281/zenodo.3932935
10.5281/zenodo.3628018
10.5061/dryad.7wm37pvx5
10.5281/zenodo.10400476
10.5281/zenodo.7148513
10.5281/zenodo.4957517
10.5281/zenodo.1495070
10.5281/zenodo.7796264
10.5281/zenodo.7462516
10.5281/zenodo.3874714
10.5281/zenodo.3603072
10.5281/zenodo.3403082
10.5281/zenodo.7614856
10.5061/dryad.4f4qrfjjc
10.5281/zenodo.10474700
10.5061/dryad.000000046
10.5281/zenodo.8341374
10.3897/BDJ.8.e48623.figure2d
10.5281/zenodo.45044
10.5281/zenodo.8046630
10.5281/zenodo.7802745
10.5281/zenodo.8269356
10.5281/zenodo.3826146
10.5281/zenodo.10053093
10.5281/zenodo.3871603
10.3897/rio.7.e77750.figure1
10.5281/zenodo.10485575
10.5061/dryad.ksn02v746
10.1021/acs.jpcc.3c01887.
10.5281/zenodo.7495559
10.5281/zenodo.7385445
10.3897/neobiota.62.52934.suppl1
10.5281/zenodo.6962616
10.5281/zenodo.5535624
10.5281/zenodo.7871187
10.5281/zenodo.10201545
10.5281/zenodo.4265431
10.1126/scitranslmed.abc8362
10.5281/zenodo.5642126
10.5281/zenodo.1475283
10.5281/zenodo.6035534
10.5281/zenodo.7472518
10.5281/zenodo.37476
10.5281/zenodo.7732341
10.5281/zenodo.3902757
10.5061/dryad.f4qrfj6wr
10.5061/dryad.4rr39
10.5281/zenodo.3903874
10.5281/zenodo.6505500
10.5061/dryad.rjdfn2z7p
10.5281/zenodo.1035485
10.5281/zenodo.8303080
10.5061/dryad.rxwdbrvbg
10.5061/dryad.1sf007b
10.5281/zenodo.5723996
10.5281/zenodo.6991116
10.5281/zenodo.7762437
10.5281/zenodo.4118790
10.5281/zenodo.4616357
10.5281/zenodo.7115984
10.3897/neobiota.70.65454.suppl1
10.5281/zenodo.7804590
10.5281/zenodo.10621171
10.5281/zenodo.5189179
10.5281/zenodo.5727127
10.5281/zenodo.5243209
10.5281/zenodo.7438422
10.5281/zenodo.3483601
10.5281/zenodo.7628236
10.5281/zenodo.5838139
10.5281/zenodo.8314927
10.5281/zenodo.10210416
10.5281/zenodo.10069276
10.5281/zenodo.3627732
10.5281/zenodo.1489533
10.5281/zenodo.5549758
10.5281/zenodo.3528068
10.5281/zenodo.7978514
10.5281/zenodo.7113144
10.5061/dryad.689110r
10.5061/dryad.st350
10.5281/zenodo.8342388
10.5281/zenodo.5108951
10.5281/zenodo.10548744
10.5281/zenodo.1173088
10.5281/zenodo.7085313
10.5281/zenodo.7382840
10.5281/zenodo.3773905
10.5281/zenodo.3610615
10.5281/zenodo.7485725
10.5281/zenodo.4625619
10.5281/zenodo.3725791
10.5281/zenodo.10511345
10.5281/zenodo.10485577
10.5281/zenodo.8384883
10.3897/neobiota.70.65454.suppl2
10.5281/zenodo.7110117
10.5281/zenodo.10694528
10.5281/zenodo.5654628
10.5281/zenodo.5237214
10.5281/zenodo.7969434
10.5281/zenodo.4305929
10.5281/zenodo.6573845
10.5281/zenodo.8424333
10.5281/zenodo.10392426
10.5281/zenodo.3715652
10.5281/zenodo.7507112
10.5281/zenodo.5865001
10.5281/zenodo.4304466
10.5281/zenodo.3938956
10.5061/dryad.2j5s7
10.5281/zenodo.8420459
10.5281/zenodo.8392608
10.5281/zenodo.7790110
10.5281/zenodo.10441454
10.5281/zenodo.5835975
10.5281/zenodo.6535396
10.5281/zenodo.3568739
10.5281/zenodo.6506583
10.1051/0004-6361/202244633
10.5281/zenodo.5588468
10.5281/zenodo.5289201
10.5281/zenodo.5242829
10.5281/zenodo.4625676
10.5281/zenodo.4288857
10.5281/zenodo.5500499
10.5281/zenodo.840877
10.5281/zenodo.4769825
10.3897/phytokeys.95.22324.figure1
10.5061/dryad.27qf3
10.5281/zenodo.8271121
10.5281/zenodo.8171326
10.5281/zenodo.5744160
10.5281/zenodo.10037954
10.5281/zenodo.3672715
10.5281/zenodo.7928522
10.5281/zenodo.7385933
10.3897/rio.2.e11321.figure1
10.5281/zenodo.7741947
10.5061/dryad.bnzs7h4dx
10.5061/dryad.9w0vt4bd1
10.5281/zenodo.3403088
10.5281/zenodo.10485585
10.5281/zenodo.7307793
10.5281/zenodo.5084367
10.5281/zenodo.7225366
10.5061/dryad.qrfj6q5h6
10.3897/rio.7.e77750.figure2
10.5061/dryad.brv15dvcj
10.5281/zenodo.3701520
10.5281/zenodo.8225005
10.5061/dryad.rb0qk13
10.5281/zenodo.10061547
10.5281/zenodo.10207869
10.5281/zenodo.7307563
10.5281/zenodo.8353229
10.15146/zf0j-5m50
10.5281/zenodo.2789093
10.5281/zenodo.10276481
10.5281/zenodo.10428215
10.5281/zenodo.2248525
10.5281/zenodo.2485983
10.5281/zenodo.8124000
10.5281/zenodo.4764317
10.5281/zenodo.3549806
10.5281/zenodo.3367347
10.5281/zenodo.7655981
10.5281/zenodo.7007289
10.5281/zenodo.7054555
10.5281/zenodo.5142591
10.5281/zenodo.7057257
10.5281/zenodo.5237575
10.5281/zenodo.10276253
10.5281/zenodo.5835979
10.5281/zenodo.5119079
10.5281/zenodo.6223302
10.5281/zenodo.10020955
10.5281/zenodo.5243268
10.7280/D1WT11
10.5281/zenodo.3819313
10.5281/zenodo.5500144
10.5281/zenodo.8269409
10.5281/zenodo.7064041
10.5281/zenodo.5905877
10.7280/D1MM37
10.5281/zenodo.7688636
10.7280/D1R085
10.5281/zenodo.3135479
10.5281/zenodo.7387170
10.5281/zenodo.5285177
10.5281/zenodo.7224878
10.5061/dryad.m37pvmd0v
10.5281/zenodo.4683985
10.5281/zenodo.8060225
10.5281/zenodo.3899776
10.5281/zenodo.10080490
10.5281/zenodo.7141346
10.5281/zenodo.8348922
10.5281/zenodo.5564457
10.5281/zenodo.6517730
10.5281/zenodo.2590150
10.5281/zenodo.10634157
10.5281/zenodo.4923680
10.5281/zenodo.10208773
10.5281/zenodo.7780496
10.5281/zenodo.4090905
10.5281/zenodo.1009126
10.5281/zenodo.7993122
10.5281/zenodo.5243199
10.5281/zenodo.200198
10.5281/zenodo.10204837
10.5281/zenodo.3870657
10.5281/zenodo.10533809
10.5281/zenodo.4745556
10.5281/zenodo.6685515
10.5281/zenodo.7573372
10.5281/zenodo.3888347
10.5281/zenodo.2585908
10.5281/zenodo.4543403
10.5281/zenodo.5578340
10.5281/zenodo.5243264
10.5281/zenodo.5336853
10.5281/zenodo.7649167
10.5281/zenodo.5243248
10.5281/zenodo.10650804
10.5281/zenodo.7602827
10.5281/zenodo.3872130
10.5281/zenodo.10471553
10.5061/dryad.wpzgmsbp2
10.5061/dryad.7h44j100f
10.5281/zenodo.6406158
10.5281/zenodo.10674398
10.5281/zenodo.5769631
10.5281/zenodo.10020919
10.5281/zenodo.3048780
10.5281/zenodo.6458203
10.5281/zenodo.4947841
10.5281/zenodo.3529760
10.5281/zenodo.8025653
10.5281/zenodo.10592270
10.5281/zenodo.3898495
10.5281/zenodo.5950801
10.5281/zenodo.6886498
10.5281/zenodo.5833771
10.5281/zenodo.4925909
10.5281/zenodo.7056694
10.5281/zenodo.5570297
10.5281/zenodo.3361544
10.5281/zenodo.5835977
10.5281/zenodo.5913981
10.5281/zenodo.6319386
10.5281/zenodo.10049814
10.5281/zenodo.3876052
10.5061/dryad.3ffbg79pv
10.5281/zenodo.5109574
10.5281/zenodo.7385781
10.5061/dryad.j6q573n7x
10.5281/zenodo.5849861
10.5281/zenodo.8275263
10.5281/zenodo.5838249
10.5281/zenodo.8086478
10.5281/zenodo.59146
10.5281/zenodo.6280986
10.5061/dryad.jm63xsj7b
10.5281/zenodo.3583364
10.5061/dryad.490p9
10.5281/zenodo.2625730
10.1016/j.mtla.2022.101480
10.5281/zenodo.7137482
10.5281/zenodo.5237279
10.5281/zenodo.7866738
10.5281/zenodo.5801251
10.5281/zenodo.4601172
10.5281/zenodo.7560290
10.5281/zenodo.10020953
10.5281/zenodo.7755633
10.5281/zenodo.4264162
10.5281/zenodo.6384945
10.5281/zenodo.8279040
10.5061/dryad.n230404
10.3897/rio.7.e77750.figure3
10.5061/dryad.6q573n621
10.5061/dryad.dbrv15f06
10.5281/zenodo.8085467
10.5281/zenodo.3873088
10.5281/zenodo.4314872
10.5281/zenodo.3372756
10.5061/dryad.1s7v5
10.5281/zenodo.7499314
10.5281/zenodo.5508669
10.5281/zenodo.3606387
10.5281/zenodo.3552836
10.1002/esp.5650
10.5281/zenodo.8143305
10.5281/zenodo.6675912
10.5281/zenodo.1009122
10.5281/zenodo.8271248
10.5281/zenodo.4888804
10.5281/zenodo.7457613
10.5061/dryad.n5tb2rbx9
10.5281/zenodo.5835981
10.5061/dryad.jq2bvq878
10.5281/zenodo.5242879
10.3897/rio.7.e77750.figure6
10.5281/zenodo.3407127
10.5281/zenodo.10020983
10.5281/zenodo.4022283
10.5281/zenodo.8052969
10.5281/zenodo.1475271
10.3897/phytokeys.95.22324.figure2
10.5281/zenodo.3817443
10.5281/zenodo.1443459
10.5281/zenodo.5718043
10.5281/zenodo.10055462
10.5281/zenodo.6956953
10.5061/dryad.5s77q
10.5281/zenodo.7603489
10.5281/zenodo.7195152
10.5281/zenodo.3405119
10.5281/zenodo.5913708
10.5281/zenodo.10410541
10.5281/zenodo.4014726
10.5281/zenodo.8329497
10.5281/zenodo.8408864
10.5281/zenodo.7584063
10.5281/zenodo.10523321
10.5281/zenodo.7890953
10.5281/zenodo.5835168
10.5281/zenodo.6861341
10.5281/zenodo.10117556
10.5281/zenodo.4303996
10.5281/zenodo.8390942
10.3897/BDJ.8.e48623.figure2e
10.5281/zenodo.3463483
10.5281/zenodo.10474604
10.5281/zenodo.1479794
10.5281/zenodo.6674852
10.5281/zenodo.4286111
10.5281/zenodo.6798922
10.5281/zenodo.4581363
10.1016/j.pss.2022.105536
10.5281/zenodo.5243257
10.5281/zenodo.3631244
10.5281/zenodo.4573897
10.5281/zenodo.7755650
10.3897/rio.7.e77750.figure8a
10.5281/zenodo.6941739
10.1063/5.0077868
10.5281/zenodo.7835266
10.5061/dryad.zw3r2286h
10.5281/zenodo.4562706
10.5281/zenodo.10037960
10.5281/zenodo.4256801
10.5281/zenodo.7986836
10.5281/zenodo.3871493
10.5281/zenodo.7802771
10.5281/zenodo.7941767
10.5281/zenodo.7547644
10.5281/zenodo.154083
10.5281/zenodo.7030984
10.5281/zenodo.7693381
10.5281/zenodo.7213408
10.5281/zenodo.7342481
10.5281/zenodo.6827882
10.5281/zenodo.10020967
10.5281/zenodo.10492230
10.1103/PhysRevB.102.214514
10.5281/zenodo.7006744
10.5061/dryad.wh70rxwnf
10.5281/zenodo.3648639
10.5281/zenodo.7840469
10.5281/zenodo.5563067
10.5281/zenodo.8116463
10.5281/zenodo.5841588
10.5281/zenodo.8223563
10.5061/dryad.9s4mw6mm3
10.5281/zenodo.4538745
10.7280/D1GW91
10.5281/zenodo.8082768
10.5281/zenodo.5243180
10.18709/perscido.2021.09.ds353
10.5061/dryad.xksn02vn4
10.5281/zenodo.7969515
10.5281/zenodo.3725624
10.5281/zenodo.6532308
10.5281/zenodo.5496375
10.5281/zenodo.3606016
10.5281/zenodo.61089
10.5281/zenodo.2677907
10.5281/zenodo.7590005
10.5281/zenodo.4745568
10.5061/dryad.fbg79cnx2
10.5281/zenodo.5243356
10.5281/zenodo.5024655
10.5281/zenodo.3813574
10.5281/zenodo.8316094
10.5281/zenodo.7180985
10.5061/dryad.8gtht76tq
10.5281/zenodo.5999123
10.5281/zenodo.8057992
10.5281/zenodo.5243218
10.5281/zenodo.4603774
10.5281/zenodo.4442416
10.5281/zenodo.10211920
10.5281/zenodo.5744873
10.5281/zenodo.10005463
10.5061/dryad.4n5929c
10.5281/zenodo.10213989
10.5281/zenodo.3862151
10.1002/essoar.10508001.1
10.5281/zenodo.7372398
10.5281/zenodo.7627946
10.5281/zenodo.4629216
10.5061/dryad.5b58400
10.5281/zenodo.10037956
10.5281/zenodo.6506336
10.5281/zenodo.7135091
10.5281/zenodo.3257654
10.5281/zenodo.4010153
10.5061/dryad.612jm643q
10.5061/dryad.b8gtht78h
10.5281/zenodo.6939154
10.5281/zenodo.4763381
10.5281/zenodo.3635402
10.5281/zenodo.6324930
10.5281/zenodo.8139775
10.5281/zenodo.4776977
10.5281/zenodo.5647786
10.3897/natureconservation.49.82931.suppl1
10.5281/zenodo.5062314
10.5281/zenodo.4059193
10.5061/dryad.3r2280ggb
10.3897/rio.7.e77750.figure4
10.5281/zenodo.10058946
10.5281/zenodo.999197
10.5281/zenodo.832421
10.5281/zenodo.8265979
10.5061/dryad.8cz8w9gqs
10.5281/zenodo.10419097
10.5061/dryad.d2547d810
10.5281/zenodo.7331741
10.5281/zenodo.10469400
10.5061/dryad.283pp
10.5281/zenodo.3759301
10.5281/zenodo.7855146
10.5281/zenodo.10133203
10.5281/zenodo.5788695
10.5281/zenodo.3613951
10.5281/zenodo.1112342
10.5281/zenodo.8252180
10.5281/zenodo.6806404
10.5281/zenodo.6985564
10.5061/dryad.1qt12
10.5281/zenodo.10199624
10.5281/zenodo.7813697
10.5281/zenodo.8206446
10.5281/zenodo.4729758
10.3897/natureconservation.49.82931.suppl4
10.5281/zenodo.5237188
10.5281/zenodo.7119220
10.5281/zenodo.8408515
10.5281/zenodo.8014905
10.5281/zenodo.3345743
10.5281/zenodo.6526421
10.5281/zenodo.3981252
10.5281/zenodo.4745564
10.5281/zenodo.3817352
10.5281/zenodo.4574537
10.5281/zenodo.4607934
10.5281/zenodo.888977
10.5061/dryad.jwstqjqbr
10.5281/zenodo.1156633
10.5281/zenodo.10277799
10.5281/zenodo.8404376
10.5281/zenodo.8076436
10.5281/zenodo.8094516
10.5281/zenodo.5013300
10.5281/zenodo.7143466
10.5281/zenodo.8269855
10.1561/2200000089
10.5281/zenodo.4302473
10.5281/zenodo.1068339
10.5281/zenodo.10485581
10.5061/dryad.8290n
10.5281/zenodo.8421879
10.5281/zenodo.4680486
10.5281/zenodo.8189792
10.5281/zenodo.6498344
10.5061/dryad.ttdz08ktn
10.5281/zenodo.4715737
10.3897/BDJ.8.e48623.figure2a
10.3897/BDJ.8.e48623.figure2c
10.5281/zenodo.4640463
10.5281/zenodo.3384633
10.5281/zenodo.6860527
10.5281/zenodo.5554849
10.5281/zenodo.3817437
10.5281/zenodo.3817433
10.5281/zenodo.35230
10.5281/zenodo.6683741
10.5281/zenodo.7785223
10.5281/zenodo.7030107
10.5281/zenodo.7499383
10.5281/zenodo.7866962
10.5281/zenodo.5120376
10.5281/zenodo.7249512
10.5061/dryad.qv9s4mwf3
10.5281/zenodo.7395343
10.48550/arXiv.2310.14831
10.5281/zenodo.1289969
10.5281/zenodo.5243352
10.3897/phytokeys.95.22324.figure3
10.5061/dryad.cvdncjt2p
10.5281/zenodo.4139737
10.5281/zenodo.1256648
10.5281/zenodo.5835983
10.5281/zenodo.3876188
10.5281/zenodo.8104455
10.5281/zenodo.5645545
10.5281/zenodo.5648316
10.5281/zenodo.4943234
10.5281/zenodo.7970338
10.5281/zenodo.3873216
10.7280/D1B114
10.5281/zenodo.8095047
10.5281/zenodo.8083133
10.5281/zenodo.6461645
10.5281/zenodo.6974319
10.5281/zenodo.10679304
10.5281/zenodo.8324811
10.5281/zenodo.4067946
10.5281/zenodo.4916120
10.5281/zenodo.3625778
10.5281/zenodo.8368904
10.3897/natureconservation.49.82931.suppl3
10.21203/rs.3.rs-1370209/v1
10.5281/zenodo.8010223
10.5281/zenodo.6380887
10.5281/zenodo.5500364
10.25914/604eb7628b4e7
10.3897/BDJ.8.e48623.suppl1
10.5281/zenodo.6390598
10.5281/zenodo.8181417
10.5281/zenodo.580042
10.5281/zenodo.8308027
10.5061/dryad.ttdz08m16
10.5281/zenodo.10568799
10.5061/dryad.2fqz612m4
10.5061/dryad.d51c5b019
10.5281/zenodo.6855728
10.5281/zenodo.10475278
10.5281/zenodo.1475906
10.5281/zenodo.8239429
10.5061/dryad.k31d4
10.5281/zenodo.7689499
10.5281/zenodo.5793694
10.5281/zenodo.4632200
10.5061/dryad.hmgqnk9hh
10.5061/dryad.2v1m1fj
10.5061/dryad.wh70rxwpz
10.5281/zenodo.4883250
10.5281/zenodo.10485583
10.3897/rio.7.e77750.figure5
10.5061/dryad.ksn02v75q
10.5061/dryad.wm37pvmkw
10.5281/zenodo.1476113
10.5281/zenodo.7025633
10.5281/zenodo.5535532
10.5281/zenodo.7798143
10.5281/zenodo.7122113
10.5281/zenodo.5237198
10.5281/zenodo.3813230
10.5281/zenodo.3707930
10.5281/zenodo.1199545
10.7280/D1Z69G
10.5281/zenodo.7763080
10.5281/zenodo.4421252
10.5281/zenodo.4591774
10.5281/zenodo.8421859
10.5281/zenodo.10394959
10.5281/zenodo.10440364
10.5061/dryad.cz8w9gj06
10.5281/zenodo.5148640
10.5281/zenodo.5723606
10.5281/zenodo.10020957
10.3897/BDJ.8.e48623.figure1
10.1088/1752-7163/aa9e71
10.5281/zenodo.7015277
10.5061/dryad.2z34tmpjg
10.5281/zenodo.7221105
10.5281/zenodo.7865424
10.5281/zenodo.4575211
10.5281/zenodo.4590885
10.5281/zenodo.5765565
10.5281/zenodo.6448390
10.5281/zenodo.8362722
10.5281/zenodo.5527127
10.5281/zenodo.10222606
10.5281/zenodo.4603535
10.5281/zenodo.7762439
10.5281/zenodo.10551249
10.5281/zenodo.8363118
10.5281/zenodo.8283641
10.5281/zenodo.5526763
10.5281/zenodo.5243277
10.5281/zenodo.8247362
10.5061/dryad.c866t1g49
10.5281/zenodo.10204743
10.5281/zenodo.10142460
10.5281/zenodo.7327824
10.5061/dryad.4j0zpc8h2
10.5281/zenodo.10444954
10.5281/zenodo.6078514
10.5281/zenodo.7429639
10.5281/zenodo.3771710
10.5281/zenodo.3382123
10.5281/zenodo.7092357
10.5281/zenodo.7561767
10.5061/dryad.6c886
10.5281/zenodo.4079190
10.5061/dryad.c670tq2
10.5281/zenodo.5243362
10.5281/zenodo.5998113
10.5281/zenodo.7418361
10.5281/zenodo.5217997
10.5281/zenodo.5761723
10.5061/dryad.m1t32
10.5281/zenodo.4273949
10.5281/zenodo.8129629
10.5281/zenodo.10650737
10.5281/zenodo.4305970
10.5281/zenodo.10485579
10.5281/zenodo.1194786
10.5281/zenodo.10587576
10.5281/zenodo.8131976
10.5281/zenodo.7254133
10.5281/zenodo.4784408
10.5281/zenodo.6397629
10.5281/zenodo.3611936
10.5281/zenodo.7795898